Rainfall simulation completed in 1588 time steps
Runtime = 2.37505 seconds

The following grid shows the number of raindrops absorbed at each point:
	150.25	24.5	7.5	7.5	15.25	7.5	7.5	7.5	7.5	10.75	7.5	97.5	7.5	7.5	7.5	7.5	30	7.5	10.75	7.5	7.5	7.5	7.5	7.5	97.5	7.5	7.5	10.75	7.5	7.5	7.5	30	7.5	10.75	7.5	52.5	7.5	75	7.5	116.75	10.75	52.5	94.25	10.75	7.5	7.5	89.125	7.5	7.5	10.75	116.75	7.5	52.5	7.5	7.5	75	7.5	97.5	7.5	7.5	7.5	7.5	10.75	7.5	7.5	7.5	75	7.5	182.75	7.5	75	7.5	7.5	10.75	7.5	7.5	10.75	7.5	52.5	7.5	10.75	7.5	10.75	7.5	97.5	7.5	7.5	13	7.5	8.5	107.75	7.5	7.5	75	30	7.5	97.5	7.5	7.5	89.75	15.25	7.5	7.5	15.25	7.5	7.5	116.75	7.5	7.5	15.25	7.5	7.5	7.5	10.75	52.5	7.5	30	7.5	7.5	134.75	15.25	7.5	7.5	7.5	7.5	111.125	14.75	7.5
	7.5	17.5	14.5	7.5	185.5	7.5	116.75	10.75	7.5	116.75	7.5	7.5	7.5	97.5	10.75	19	7.5	7.5	94.25	116.75	10.75	10.75	75	7.5	7.5	7.5	25.25	217.25	7.5	10.75	75	7.5	7.5	116.75	7.5	7.5	52.5	7.5	7.5	7.5	7.5	7.5	7.5	7.5	7.5	121.875	13	7.5	7.5	75	7.5	10.75	7.5	7.5	30	7.5	7.5	7.5	94.25	10.75	10.75	23.5	165	7.5	75	7.5	7.5	7.5	27	7.5	7.5	7.5	10.75	158.5	7.5	52.5	19	7.5	7.5	7.5	139.25	7.5	116.75	7.5	7.5	7.5	19	178.5	7.5	7.5	7.5	7.5	7.5	7.5	7.5	75	7.5	7.5	75	7.5	7.5	7.5	10.75	144.375	7.5	99.75	10.75	7.5	7.5	22.5	7.5	97.5	7.5	139.25	7.5	7.5	7.5	120	7.5	7.5	7.5	14.5	174	10.75	7.5	7.5	10.75	7.5
	75	7.5	10.75	7.5	13	7.5	7.5	30	7.5	7.5	52.5	7.5	7.5	7.5	7.5	25.75	177	7.5	7.5	7.5	7.5	194.5	7.5	7.5	41.25	7.5	13	7.5	7.5	213.75	10.75	7.5	7.5	7.5	7.5	30	7.5	7.5	52.5	7.5	7.5	7.5	15.25	112.25	7.5	8.5	7.5	7.5	7.5	7.5	8.5	149.5	7.5	116.75	7.5	7.5	120	7.5	7.5	7.5	75	7.5	7.5	19.75	7.5	7.5	7.5	75	15.25	7.5	7.5	75	7.5	7.5	52.5	7.5	30.25	7.5	7.5	7.5	7.5	30	7.5	7.5	7.5	7.5	10.75	7.5	7.5	97.5	7.5	10.75	139.25	7.5	7.5	7.5	7.5	7.5	7.5	139.25	7.5	10.75	103.875	7.5	14.5	17.5	7.5	30	7.5	259.25	10.75	7.5	7.5	7.5	7.5	19.75	7.5	7.5	73.375	7.5	7.5	10.75	7.5	7.5	15.25	193.375	14.75	7.5
	7.5	109.75	7.5	8.5	7.5	7.5	10.75	7.5	157.25	15.25	7.5	7.5	176.5	15.25	7.5	7.5	97.5	7.5	97.5	7.5	7.5	19.75	7.5	97.5	7.5	7.5	7.5	7.5	7.5	19.75	7.5	7.5	13	25.25	198	7.5	116.75	10.75	7.5	130.25	19.75	7.5	7.5	7.5	166.25	7.5	7.5	23.5	10.75	41.25	7.5	7.5	30	10.75	7.5	30	7.5	7.5	52.5	7.5	7.5	7.5	10.75	149.5	7.5	75	7.5	7.5	7.5	7.5	120	7.5	75	7.5	7.5	7.5	217.5	7.5	10.75	15.25	7.5	7.5	7.5	15.25	27	7.5	7.5	108.75	7.5	10.75	7.5	52.5	7.5	7.5	15.25	7.5	190.75	23.5	7.5	10.75	7.5	7.5	7.5	7.5	10.75	7.5	147.5	12.75	10.75	19	7.5	7.5	220.5	7.5	7.5	30.75	7.5	7.5	10.75	7.5	30	7.5	116.75	7.5	7.5	7.5	52.5	7.5
	7.5	14.5	10.75	107.75	7.5	7.5	139.25	7.5	7.5	52.5	7.5	52.5	10.75	7.5	7.5	30	7.5	41.25	7.5	10.75	7.5	7.5	30	7.5	7.5	15.25	7.5	120	7.5	7.5	7.5	63.75	7.5	7.5	7.5	7.5	7.5	7.5	139.25	10.75	7.5	7.5	7.5	7.5	17.5	7.5	14.5	225.5	7.5	7.5	7.5	7.5	15.25	7.5	7.5	7.5	7.5	19.75	7.5	7.5	7.5	7.5	7.5	7.5	19.75	7.5	75	7.5	7.5	52.5	7.5	7.5	7.5	7.5	15.25	112.25	7.5	7.5	224.5	27	7.5	75	7.5	15.25	242.5	7.5	30	7.5	7.5	192	7.5	7.5	7.5	7.5	157.25	7.5	7.5	10.75	7.5	7.5	7.5	7.5	97.5	7.5	7.5	30	7.5	8.5	7.5	7.5	7.5	10.75	31	7.5	7.5	219.5	7.5	7.5	173.625	19.75	7.5	7.5	10.75	7.5	63.75	7.5	7.5	7.5
	52.5	7.5	7.5	7.5	30	7.5	7.5	7.5	7.5	97.5	7.5	7.5	7.5	7.5	120	7.5	83	7.5	7.5	71.75	7.5	7.5	10.75	7.5	7.5	157.25	7.5	7.5	7.5	52.5	7.5	7.5	134.75	15.25	7.5	10.75	7.5	7.5	7.5	7.5	7.5	10.75	15.25	7.5	7.5	7.5	10.75	7.5	7.5	19.75	152.75	7.5	165.25	10.75	52.5	10.75	7.5	254.75	25.75	19	10.75	10.75	94.25	7.5	230.5	7.5	7.5	7.5	7.5	7.5	7.5	19.75	7.5	7.5	7.5	7.5	7.5	30	7.5	7.5	52.5	7.5	7.5	7.5	7.5	7.5	7.5	161.5	7.5	19	7.5	7.5	139.25	10.75	7.5	7.5	7.5	10.75	7.5	10.75	139.25	7.5	7.5	7.5	94.25	10.75	7.5	7.5	7.5	30	7.5	7.5	15.25	7.5	7.5	7.5	127.75	7.5	7.5	7.5	75	7.5	8.5	96.5	7.5	228	23.5	10.75
	7.5	139.25	10.75	30	7.5	52.5	10.75	176.5	7.5	7.5	7.5	7.5	7.5	7.5	7.5	7.5	10.75	7.5	19.75	7.5	75	7.5	27.25	10.75	7.5	7.5	10.75	7.5	7.5	10.75	52.5	10.75	7.5	7.5	7.5	19	225.5	19	10.75	7.5	174	14.5	89.75	7.5	108.75	7.5	30	7.5	7.5	7.5	7.5	30	7.5	7.5	7.5	19	7.5	7.5	7.5	10.75	7.5	7.5	10.75	7.5	19.75	7.5	7.5	19.75	230.5	19.75	7.5	107.75	7.5	52.5	7.5	7.5	19.75	7.5	7.5	7.5	7.5	7.5	205.25	7.5	7.5	139.25	10.75	19	10.75	10.75	7.5	94.25	7.5	7.5	7.5	120	7.5	14.5	75	7.5	7.5	10.75	210	23.5	10.75	7.5	7.5	8.5	107.75	7.5	120	7.5	7.5	30	10.75	94.25	19	10.75	30	7.5	7.5	7.5	7.5	7.5	7.5	15.25	7.5	30
	52.5	7.5	7.5	7.5	120	7.5	7.5	15.25	7.5	7.5	187.25	22.5	15.25	97.5	7.5	7.5	15.25	18	261.75	7.5	7.5	7.5	206.25	7.5	52.5	7.5	19	7.5	7.5	158.5	7.5	116.75	7.5	7.5	7.5	10.75	7.5	7.5	7.5	7.5	10.75	7.5	7.5	7.5	7.5	7.5	10.75	194.5	19.75	7.5	7.5	7.5	108.75	7.5	7.5	150.25	75	7.5	7.5	139.25	7.5	7.5	139.25	7.5	7.5	7.5	7.5	7.5	7.5	7.5	7.5	10.75	168.75	10.75	116.75	7.5	130.25	7.5	139.25	10.75	7.5	7.5	27	7.5	30	7.5	7.5	7.5	7.5	7.5	7.5	10.75	7.5	7.5	52.5	7.5	7.5	154.75	7.5	30	7.5	7.5	7.5	7.5	10.75	7.5	10.75	30	7.5	30	7.5	7.5	120	7.5	7.5	7.5	7.5	7.5	7.5	188.25	7.5	85.25	8.5	7.5	7.5	7.5	7.5	7.5
	7.5	7.5	7.5	10.75	7.5	75	7.5	7.5	7.5	10.75	7.5	7.5	7.5	7.5	7.5	7.5	7.5	7.5	15.25	7.5	7.5	52.5	7.5	30	7.5	19.75	242.75	15.25	7.5	10.75	7.5	7.5	30	10.75	14.5	129	7.5	75	7.5	10.75	14.5	26.5	180.75	10.75	116.75	7.5	71.75	7.5	7.5	10.75	19	21.25	7.5	7.5	7.5	7.5	7.5	7.5	10.75	7.5	30	7.5	7.5	7.5	14.5	10.75	10.75	7.5	7.5	30	7.5	75	8.5	7.5	10.75	7.5	7.5	7.5	7.5	7.5	120	7.5	15.25	7.5	7.5	7.5	7.5	10.75	7.5	7.5	75	7.5	7.5	7.5	7.5	134.75	7.5	7.5	7.5	10.75	75	7.5	30	7.5	94.25	7.5	94.25	7.5	10.75	7.5	7.5	7.5	7.5	7.5	52.5	7.5	7.5	7.5	10.75	22.75	10.75	7.5	7.5	139.25	10.75	10.75	176.5	15.25
	7.5	97.5	7.5	172	7.5	7.5	7.5	30	7.5	139.25	7.5	15.25	7.5	7.5	15.25	75	7.5	7.5	86.25	7.5	8.5	7.5	7.5	7.5	52.5	7.5	7.5	7.5	7.5	7.5	7.5	7.5	7.5	94.25	7.5	15.25	157.25	7.5	7.5	7.5	7.5	7.5	7.5	7.5	7.5	30	10.75	7.5	7.5	7.5	7.5	220	10.75	94.25	10.75	7.5	75	7.5	14.5	121	7.5	97.5	7.5	156	17.5	7.5	34	19	10.75	7.5	7.5	7.5	7.5	8.5	17.25	7.5	7.5	120	7.5	7.5	7.5	7.5	7.5	10.75	23.5	190.75	7.5	14.5	241	27.25	10.75	7.5	27	15.25	7.5	15.25	7.5	7.5	7.5	139.25	7.5	52.5	7.5	175.25	7.5	52.5	7.5	7.5	94.25	7.5	10.75	19	7.5	120	7.5	180.75	26.5	7.5	7.5	134.75	15.25	7.5	7.5	7.5	7.5	7.5	7.5	7.5
	7.5	7.5	7.5	19.75	7.5	7.5	75	7.5	7.5	7.5	7.5	257.75	7.5	7.5	134.75	7.5	7.5	7.5	7.5	7.5	245.25	34.5	19.75	7.5	7.5	7.5	15.25	7.5	19.75	152.75	10.75	158.5	10.75	10.75	7.5	7.5	7.5	7.5	120	7.5	10.75	7.5	7.5	112.25	15.25	7.5	7.5	7.5	52.5	7.5	7.5	10.75	7.5	7.5	7.5	52.5	7.5	75	7.5	7.5	52.5	7.5	7.5	7.5	7.5	7.5	233	7.5	7.5	175.25	19.75	7.5	7.5	7.5	143	7.5	30	7.5	7.5	75	7.5	10.75	30	7.5	7.5	7.5	10.75	71.75	7.5	10.75	7.5	7.5	194	7.5	7.5	7.5	7.5	52.5	7.5	7.5	7.5	7.5	7.5	19.75	7.5	7.5	7.5	139.25	7.5	10.75	19	244.75	10.75	7.5	52.5	7.5	14.5	10.75	7.5	7.5	7.5	7.5	75	7.5	120	7.5	7.5	7.5
	10.75	176.5	7.5	7.5	7.5	7.5	7.5	23.5	10.75	7.5	10.75	31	7.5	7.5	13	7.5	15.25	157.25	7.5	7.5	7.5	10.75	7.5	7.5	52.5	7.5	157.25	7.5	7.5	7.5	52.5	7.5	7.5	7.5	7.5	7.5	7.5	10.75	7.5	7.5	14.5	26.5	203.25	7.5	7.5	30	10.75	19	7.5	52.5	7.5	30	7.5	75	7.5	7.5	139.25	7.5	75	7.5	7.5	14.5	10.75	7.5	157.25	7.5	7.5	7.5	10.75	7.5	7.5	7.5	10.75	14.5	17.5	52.5	7.5	7.5	52.5	10.75	192	19	7.5	7.5	75	7.5	7.5	10.75	7.5	7.5	7.5	52.5	7.5	7.5	15.25	7.5	10.75	7.5	97.5	7.5	120	7.5	7.5	7.5	7.5	120	7.5	10.75	7.5	7.5	7.5	7.5	7.5	7.5	7.5	7.5	52.5	7.5	7.5	7.5	10.75	7.5	7.5	10.75	7.5	7.5	139.25	10.75
	7.5	15.25	7.5	7.5	10.75	19	7.5	210	10.75	7.5	7.5	15.25	7.5	8.5	229.25	7.5	7.5	7.5	7.5	75	7.5	7.5	7.5	15.25	7.5	7.5	7.5	7.5	8.5	7.5	7.5	52.5	7.5	19.75	230.5	19.75	7.5	14.5	7.5	120	7.5	7.5	7.5	7.5	97.5	7.5	7.5	258	27	7.5	52.5	7.5	75	7.5	7.5	7.5	10.75	30	7.5	7.5	7.5	192	7.5	30	15.25	7.5	71.75	7.5	139.25	7.5	7.5	75	7.5	15.25	204.5	7.5	7.5	10.75	7.5	7.5	7.5	7.5	7.5	7.5	7.5	7.5	10.75	195.75	7.5	7.5	7.5	15.25	165.25	10.75	18	25	94.25	7.5	7.5	52.5	7.5	7.5	19	10.75	7.5	7.5	101.625	10.75	7.5	7.5	30	7.5	7.5	120	7.5	7.5	7.5	139.25	10.75	7.5	169.5	19	7.5	139.25	7.5	30	7.5	7.5
	7.5	116.75	7.5	10.75	7.5	172.75	7.5	7.5	7.5	7.5	7.5	10.75	7.5	7.5	23.5	10.75	7.5	7.5	120	7.5	75	7.5	184	18	7.5	52.5	10.75	272.5	19.25	8.5	7.5	7.5	7.5	7.5	7.5	7.5	7.5	109.75	7.5	7.5	7.5	7.5	97.5	7.5	7.5	52.5	7.5	7.5	15.25	7.5	7.5	30	7.5	158.5	10.75	7.5	116.75	7.5	10.75	116.75	7.5	15.25	94.25	10.75	7.5	7.5	10.75	7.5	7.5	30	7.5	7.5	7.5	7.5	7.5	30	7.5	94.25	15.25	7.5	7.5	75	10.75	10.75	158.5	7.5	7.5	15.25	7.5	10.75	14.5	7.5	7.5	7.5	7.5	216	7.5	10.75	7.5	7.5	7.5	15.25	127.75	7.5	7.5	7.5	15.25	7.5	7.5	19.75	7.5	10.75	14.5	7.5	7.5	52.5	7.5	7.5	7.5	7.5	10.75	10.75	7.5	7.5	10.75	7.5	7.5	97.5
	7.5	10.75	7.5	139.25	7.5	7.5	75	7.5	15.25	112.25	10.75	19	7.5	7.5	7.5	7.5	7.5	63.75	7.5	7.5	7.5	7.5	15.25	7.5	75	7.5	7.5	25.75	7.5	7.5	15.25	7.5	157.25	7.5	7.5	7.5	75	7.5	30	7.5	120	7.5	7.5	7.5	10.75	14.5	7.5	30	7.5	10.75	94.25	7.5	7.5	10.75	30	7.5	10.75	7.5	7.5	7.5	71.75	7.5	7.5	7.5	7.5	157.25	15.25	7.5	7.5	7.5	19.75	212.5	15.25	7.5	7.5	7.5	30	7.5	157.25	7.5	89.75	7.5	194.5	7.5	10.75	7.5	52.5	7.5	52.5	7.5	87.25	7.5	7.5	7.5	7.5	10.75	7.5	94.25	7.5	7.5	7.5	224.5	7.5	10.75	139.25	7.5	175.625	7.5	7.5	30.75	7.5	7.5	109.75	7.5	139.25	7.5	75	10.75	116.75	10.75	158.5	7.5	7.5	7.5	139.25	7.5	7.5	7.5
	7.5	7.5	10.75	7.5	7.5	75	7.5	7.5	7.5	7.5	27.25	267	7.5	147.25	10.75	97.5	7.5	7.5	7.5	120	7.5	7.5	7.5	7.5	15.25	192	14.5	19	7.5	7.5	176.5	10.75	15.25	7.5	97.5	7.5	7.5	75	7.5	7.5	7.5	7.5	52.5	7.5	7.5	192	15.25	7.5	30	7.5	7.5	120	7.5	10.75	7.5	7.5	15.25	157.25	7.5	7.5	10.75	7.5	97.5	7.5	7.5	7.5	7.5	30	10.75	14.5	7.5	7.5	52.5	7.5	10.75	23.5	7.5	30	7.5	7.5	15.25	7.5	19.75	7.5	7.5	7.5	7.5	139.25	7.5	52.5	7.5	15.25	22.5	33	7.5	7.5	7.5	7.5	15.25	27	7.5	22.5	7.5	7.5	7.5	7.5	23.5	10.75	7.5	256.75	15.25	7.5	7.5	75	10.75	7.5	7.5	7.5	7.5	7.5	7.5	7.5	120	7.5	7.5	7.5	15.25	30
	52.5	7.5	71.75	7.5	7.5	7.5	7.5	19.75	7.5	7.5	10.75	10.75	7.5	10.75	7.5	7.5	7.5	108.75	7.5	7.5	7.5	139.25	10.75	7.5	7.5	7.5	10.75	10.75	7.5	75	7.5	7.5	7.5	7.5	7.5	7.5	7.5	10.75	213.75	10.75	30	7.5	7.5	10.75	71.75	7.5	63.75	7.5	7.5	52.5	7.5	7.5	7.5	158.5	10.75	7.5	7.5	7.5	10.75	7.5	7.5	52.5	7.5	7.5	132.25	14.5	10.75	7.5	7.5	22	23.75	52.5	7.5	7.5	7.5	190.75	7.5	7.5	75	7.5	7.5	7.5	7.5	30	7.5	15.25	7.5	10.75	7.5	7.5	30	7.5	7.5	206.75	7.5	52.5	15.25	7.5	7.5	205.25	7.5	15.25	7.5	7.5	152.75	7.5	7.5	7.5	30	7.5	7.5	75	7.5	7.5	7.5	52.5	7.5	7.5	7.5	7.5	97.5	7.5	7.5	75	7.5	7.5	157.25	7.5
	10.75	139.25	7.5	168.25	23.5	7.5	7.5	172	10.75	7.5	7.5	7.5	30	7.5	7.5	15.25	7.5	7.5	7.5	7.5	7.5	7.5	30	7.5	75	7.5	7.5	7.5	7.5	7.5	52.5	7.5	7.5	120	7.5	52.5	7.5	7.5	19.75	7.5	7.5	15.25	157.25	7.5	7.5	63.75	7.5	52.5	7.5	7.5	15.25	52.5	7.5	7.5	7.5	7.5	117.75	22	14.5	7.5	52.5	7.5	7.5	10.75	7.5	7.5	7.5	7.5	30	7.5	191.5	7.5	7.5	75	7.5	7.5	7.5	10.75	7.5	97.5	7.5	15.25	89.75	7.5	19.75	212.5	7.5	7.5	7.5	120	7.5	7.5	97.5	7.5	30	7.5	176.5	10.75	7.5	7.5	30	7.5	7.5	7.5	19.75	7.5	7.5	7.5	7.5	52.5	7.5	7.5	7.5	7.5	120	7.5	7.5	10.75	23.5	7.5	7.5	7.5	94.25	7.5	7.5	30	7.5	7.5
	7.5	7.5	30	7.5	10.75	52.5	7.5	7.5	7.5	7.5	116.75	10.75	7.5	7.5	7.5	22.5	7.5	7.5	116.75	10.75	15.25	134.75	7.5	7.5	7.5	7.5	10.75	7.5	157.25	15.25	7.5	7.5	7.5	7.5	7.5	7.5	120	7.5	7.5	7.5	10.75	7.5	7.5	7.5	52.5	14.5	10.75	7.5	7.5	7.5	146	7.5	7.5	7.5	157.25	15.25	7.5	7.5	7.5	7.5	7.5	97.5	7.5	14.5	174	10.75	10.75	139.25	7.5	30	7.5	7.5	19.75	7.5	7.5	10.75	7.5	19	7.5	7.5	30	7.5	7.5	30	7.5	7.5	7.5	75	7.5	7.5	7.5	7.5	7.5	7.5	97.5	7.5	7.5	52.5	7.5	97.5	7.5	7.5	120	7.5	7.5	7.5	15.25	27	242.5	15.25	7.5	7.5	120	7.5	7.5	7.5	97.5	7.5	210	10.75	7.5	7.5	10.75	7.5	97.5	7.5	7.5	75
	7.5	75	7.5	7.5	7.5	7.5	7.5	75	10.75	7.5	10.75	7.5	15.25	215.5	41	32.5	7.5	52.5	10.75	7.5	7.5	7.5	10.75	154	15.25	7.5	94.25	7.5	7.5	7.5	7.5	204.5	22	14.5	10.75	7.5	7.5	52.5	7.5	15.25	231.75	19.75	7.5	52.5	7.5	174	7.5	7.5	120	7.5	7.5	7.5	75	7.5	7.5	75	7.5	7.5	15.25	22.5	7.5	7.5	7.5	75	7.5	52.5	7.5	7.5	52.5	7.5	7.5	10.75	194.5	7.5	7.5	94.25	7.5	228	19.75	7.5	7.5	7.5	139.25	7.5	7.5	10.75	139.25	7.5	7.5	7.5	75	15.25	7.5	7.5	7.5	30	7.5	7.5	7.5	7.5	10.75	94.25	7.5	10.75	7.5	7.5	7.5	7.5	7.5	7.5	10.75	7.5	7.5	75	7.5	30	7.5	7.5	7.5	10.75	7.5	30	7.5	7.5	7.5	7.5	7.5	7.5
	7.5	7.5	7.5	97.5	7.5	205.25	7.5	10.75	158.5	7.5	160.75	7.5	146	7.5	7.5	10.75	7.5	15.25	195.75	7.5	7.5	7.5	7.5	7.5	7.5	7.5	7.5	7.5	7.5	52.5	7.5	10.75	7.5	7.5	7.5	15.25	7.5	7.5	7.5	7.5	7.5	7.5	7.5	7.5	7.5	10.75	7.5	7.5	7.5	7.5	63.75	7.5	7.5	120	7.5	7.5	7.5	8.5	7.5	33	248.5	10.75	7.5	7.5	7.5	116.75	10.75	112.25	15.25	7.5	7.5	75	7.5	30	7.5	10.75	7.5	7.5	7.5	7.5	139.25	7.5	10.75	7.5	7.5	52.5	7.5	7.5	75	7.5	7.5	157.25	7.5	97.5	7.5	7.5	75	7.5	120	7.5	7.5	7.5	10.75	158.5	7.5	19	10.75	7.5	52.5	7.5	139.25	7.5	7.5	7.5	7.5	7.5	7.5	15.25	18	94.25	7.5	7.5	19.75	30.75	393	49.25	24.75	10.75
	152.75	19.75	7.5	7.5	7.5	27	7.5	7.5	7.5	7.5	19.75	7.5	7.5	94.25	7.5	7.5	7.5	7.5	10.75	7.5	10.75	19	7.5	97.5	15.25	229.25	10.75	19	192	7.5	10.75	94.25	7.5	120	7.5	22.5	142.25	7.5	75	7.5	7.5	166	10.75	7.5	30	10.75	158.5	10.75	7.5	30	7.5	157.25	7.5	7.5	75	7.5	8.5	17.25	7.5	7.5	7.5	7.5	19.75	7.5	30	7.5	7.5	7.5	7.5	7.5	94.25	7.5	7.5	7.5	116.75	94.25	7.5	22	14.5	10.75	10.75	94.25	10.75	7.5	7.5	10.75	52.5	7.5	7.5	120	7.5	7.5	52.5	7.5	7.5	30	7.5	94.25	7.5	75	7.5	7.5	7.5	7.5	7.5	30.25	7.5	7.5	10.75	30	7.5	7.5	52.5	7.5	19.75	194.5	7.5	7.5	225.75	13	7.5	7.5	7.5	7.5	7.5	23.75	14.5	10.75
	7.5	7.5	30	7.5	7.5	15.25	7.5	30	10.75	7.5	7.5	7.5	7.5	10.75	112.25	7.5	75	7.5	134.75	7.5	7.5	127.75	7.5	7.5	7.5	19	10.75	10.75	10.75	7.5	7.5	7.5	7.5	7.5	7.5	7.5	7.5	139.25	7.5	7.5	15.25	18	7.5	120	7.5	7.5	7.5	7.5	120	7.5	7.5	15.25	75	7.5	7.5	7.5	19.5	220	7.5	30	7.5	7.5	175.25	7.5	7.5	7.5	7.5	52.5	7.5	7.5	10.75	7.5	108.75	7.5	10.75	7.5	7.5	140.25	7.5	7.5	7.5	7.5	7.5	7.5	7.5	116.75	7.5	7.5	75	7.5	10.75	7.5	7.5	7.5	19.75	7.5	7.5	10.75	7.5	7.5	7.5	120	7.5	7.5	7.5	272.75	7.5	10.75	158.5	7.5	7.5	120	7.5	7.5	7.5	10.75	7.5	7.5	13	7.5	149.5	10.75	7.5	10.75	7.5	15.25	7.5	7.5
	7.5	7.5	7.5	97.5	7.5	75	7.5	7.5	71.75	7.5	89.75	15.25	10.75	94.25	15.25	7.5	7.5	7.5	15.25	7.5	75	7.5	157.25	7.5	7.5	7.5	7.5	7.5	7.5	30	7.5	10.75	206.5	22.5	15.25	7.5	7.5	10.75	7.5	7.5	7.5	7.5	94.25	7.5	7.5	30	7.5	30	7.5	75	7.5	7.5	7.5	7.5	10.75	7.5	7.5	7.5	10.75	7.5	15.25	7.5	7.5	7.5	134.75	15.25	150.25	7.5	52.5	7.5	10.75	7.5	7.5	7.5	7.5	7.5	7.5	7.5	158.5	10.75	7.5	7.5	15.25	157.25	7.5	7.5	7.5	30	7.5	7.5	94.25	7.5	7.5	7.5	152.75	7.5	139.25	7.5	75	7.5	7.5	7.5	7.5	15.25	7.5	19.75	7.5	7.5	7.5	7.5	7.5	7.5	7.5	19.75	7.5	30	7.5	30	7.5	7.5	19.75	7.5	7.5	139.25	7.5	7.5	8.5	7.5
	15.25	157.25	7.5	7.5	7.5	7.5	7.5	75	7.5	75	7.5	7.5	7.5	7.5	7.5	30	7.5	7.5	7.5	7.5	7.5	7.5	15.25	7.5	139.25	10.75	7.5	7.5	75	7.5	7.5	75	7.5	7.5	94.25	7.5	52.5	10.75	194.5	19.75	7.5	7.5	10.75	7.5	52.5	7.5	120	7.5	30	7.5	7.5	7.5	75	7.5	193.25	10.75	41.25	7.5	210	7.5	134.75	7.5	7.5	7.5	10.75	7.5	19	7.5	7.5	7.5	165.875	15.25	135.375	10.75	7.5	10.75	139.25	7.5	10.75	7.5	7.5	7.5	7.5	7.5	10.75	116.75	97.5	7.5	7.5	120	7.5	7.5	75	7.5	7.5	7.5	10.75	7.5	7.5	7.5	139.25	7.5	7.5	112.25	7.5	7.5	7.5	7.5	30	10.75	139.25	7.5	14.5	187.5	7.5	7.5	63.75	7.5	63.75	7.5	7.5	7.5	7.5	7.5	7.5	191.75	23.75	8.5
	7.5	7.5	7.5	175.25	19.75	7.5	30	7.5	154.75	7.5	7.5	30	30	7.5	94.25	7.5	157.25	15.25	7.5	19.75	7.5	7.5	7.5	7.5	7.5	7.5	7.5	7.5	7.5	120	7.5	7.5	7.5	52.5	10.75	7.5	7.5	7.5	7.5	7.5	7.5	7.5	15.25	176.5	10.75	7.5	7.5	7.5	7.5	145	15.25	7.5	7.5	10.75	14.5	130.25	7.5	10.75	23.5	7.5	7.5	7.5	15.25	7.5	139.25	7.5	10.75	7.5	7.5	75	10.75	7.5	7.5	7.5	139.25	7.5	7.5	7.5	7.5	7.5	23.5	10.75	75	7.5	7.5	7.5	7.5	10.75	7.5	7.5	75	7.5	7.5	75	7.5	7.5	7.5	139.25	10.75	7.5	10.75	7.5	7.5	7.5	157.25	7.5	10.75	139.25	7.5	52.5	7.5	7.5	10.75	7.5	7.5	139.25	10.75	7.5	7.5	120	7.5	10.75	211.25	19	7.5	7.5	7.5	30
	7.5	52.5	7.5	7.5	7.5	71.75	7.5	10.75	14.5	10.75	75	7.5	7.5	7.5	10.75	7.5	7.5	7.5	7.5	175.25	7.5	15.25	154	10.75	7.5	139.25	10.75	52.5	7.5	7.5	7.5	7.5	7.5	7.5	7.5	7.5	7.5	7.5	10.75	7.5	130.25	7.5	7.5	7.5	7.5	7.5	7.5	63.75	7.5	8.5	7.5	7.5	7.5	7.5	7.5	19.75	7.5	7.5	7.5	30	7.5	25.75	256	10.75	7.5	75	7.5	52.5	7.5	7.5	7.5	7.5	7.5	10.75	10.75	7.5	7.5	10.75	94.25	7.5	210	7.5	7.5	10.75	7.5	7.5	7.5	19	7.5	41.25	7.5	7.5	52.5	7.5	19.75	175.25	7.5	7.5	7.5	7.5	7.5	158.5	10.75	7.5	15.25	7.5	7.5	7.5	30	7.5	30	7.5	7.5	120	7.5	7.5	7.5	7.5	7.5	7.5	7.5	7.5	10.75	10.75	7.5	10.75	71.75	7.5
	52.5	7.5	154.75	7.5	7.5	10.75	7.5	139.25	7.5	7.5	7.5	7.5	175.25	19.75	7.5	7.5	52.5	7.5	7.5	7.5	7.5	7.5	7.5	30	7.5	7.5	7.5	7.5	108.75	7.5	147.25	10.75	10.75	176.5	15.25	52.5	10.75	7.5	128	7.5	8.5	10.75	7.5	30	10.75	94.25	10.75	10.75	7.5	7.5	23.5	261.5	23.5	7.5	30	7.5	7.5	7.5	86.25	7.5	10.75	19	7.5	7.5	52.5	7.5	52.5	7.5	7.5	30	7.5	19.75	7.5	173.25	15.25	7.5	52.5	7.5	97.5	7.5	10.75	10.75	94.25	14.5	7.5	52.5	7.5	220.25	8.5	10.75	7.5	7.5	7.5	75	7.5	7.5	10.75	7.5	7.5	158.5	10.75	10.75	75	7.5	7.5	7.5	19.75	7.5	7.5	30	7.5	120	7.5	7.5	10.75	7.5	15.25	176.5	10.75	7.5	116.75	7.5	75	7.5	7.5	7.5	7.5	97.5
	7.5	7.5	14.5	10.75	7.5	10.75	71.75	7.5	7.5	7.5	19.75	7.5	7.5	7.5	7.5	120	7.5	7.5	180	7.5	139.25	10.75	7.5	10.75	52.5	7.5	97.5	7.5	7.5	7.5	10.75	10.75	71.75	7.5	7.5	7.5	139.25	7.5	7.5	7.5	7.5	139.25	7.5	7.5	23.5	7.5	7.5	139.25	7.5	7.5	10.75	7.5	10.75	94.25	7.5	7.5	108.75	7.5	7.5	7.5	7.5	7.5	7.5	7.5	7.5	30	7.5	7.5	139.25	7.5	7.5	175.25	7.5	10.75	7.5	7.5	7.5	192.25	7.5	7.5	7.5	7.5	7.5	121	97.5	7.5	7.5	15.25	7.5	139.25	7.5	97.5	7.5	7.5	7.5	10.75	71.75	7.5	52.5	10.75	7.5	7.5	7.5	7.5	97.5	7.5	152.75	7.5	75	7.5	30	7.5	7.5	25.75	218.75	7.5	7.5	7.5	7.5	30	10.75	7.5	7.5	30	94.25	10.75	7.5	7.5
	7.5	75	7.5	7.5	7.5	30	10.75	145	13	10.75	172	7.5	132.25	7.5	30	7.5	7.5	15.25	26.5	10.75	7.5	7.5	7.5	116.75	7.5	75	7.5	97.5	7.5	30	7.5	7.5	7.5	7.5	30	7.5	7.5	30	7.5	120	7.5	7.5	30	7.5	246	7.5	7.5	7.5	7.5	30	7.5	7.5	7.5	10.75	7.5	52.5	7.5	30	13	125.75	7.5	7.5	15.25	75	7.5	10.75	149.5	8.5	10.75	7.5	30	7.5	30	7.5	7.5	10.75	26	35	7.5	120	7.5	7.5	10.75	7.5	7.5	94.25	10.75	7.5	52.5	7.5	7.5	7.5	7.5	7.5	7.5	19	7.5	7.5	7.5	7.5	52.5	7.5	7.5	7.5	7.5	7.5	15.25	7.5	7.5	97.5	7.5	52.5	7.5	19	7.5	7.5	7.5	10.75	23.5	7.5	7.5	7.5	75	7.5	7.5	7.5	7.5	10.75
	7.5	20.75	157.5	7.5	120	7.5	7.5	7.5	7.5	7.5	7.5	10.75	14.5	75	7.5	7.5	10.75	7.5	7.5	7.5	7.5	7.5	30	7.5	7.5	7.5	30	7.5	30	7.5	52.5	7.5	157.25	15.25	7.5	194.5	15.25	7.5	7.5	7.5	7.5	7.5	7.5	7.5	19.75	7.5	10.75	71.75	10.75	7.5	190.75	23.5	10.75	7.5	7.5	7.5	128	7.5	7.5	7.5	7.5	7.5	112.25	7.5	7.5	7.5	7.5	7.5	13	7.5	7.5	7.5	7.5	7.5	97.5	7.5	14.5	10.75	7.5	7.5	30	7.5	149.5	8.5	7.5	7.5	7.5	7.5	7.5	7.5	120	7.5	15.25	134.75	10.75	169.5	75	10.75	139.25	7.5	7.5	7.5	139.25	10.75	7.5	7.5	210	7.5	105.25	7.5	7.5	7.5	7.5	10.75	7.5	86.25	7.5	7.5	247.25	10.75	19	172.75	7.5	10.75	192	19	7.5	116.75
	7.5	13	7.5	30	7.5	7.5	7.5	127	8.5	7.5	7.5	7.5	7.5	7.5	83	7.5	124.75	7.5	139.25	10.75	10.75	176.5	7.5	7.5	19.75	7.5	7.5	30	7.5	120	7.5	30	7.5	7.5	7.5	15.25	7.5	7.5	15.25	7.5	97.5	19	192	7.5	7.5	52.5	7.5	7.5	174	7.5	7.5	7.5	7.5	7.5	139.25	7.5	10.75	7.5	7.5	17.5	237	23.5	10.75	10.75	139.25	7.5	7.5	7.5	103.25	7.5	10.75	10.75	139.25	7.5	10.75	7.5	10.75	7.5	7.5	7.5	10.75	101.625	7.5	7.5	120	7.5	7.5	75	7.5	7.5	7.5	7.5	7.5	7.5	7.5	7.5	7.5	7.5	7.5	7.5	75	7.5	7.5	7.5	19.75	7.5	19	7.5	19	7.5	10.75	10.75	7.5	7.5	7.5	7.5	41.25	7.5	15.25	7.5	10.75	7.5	30	7.5	7.5	10.75	7.5	7.5
	7.5	7.5	41.25	7.5	7.5	157.25	7.5	10.75	10.75	23.5	187.5	7.5	205.25	7.5	10.75	7.5	10.75	30	7.5	7.5	7.5	15.25	7.5	19	262.75	14.5	116.75	10.75	7.5	7.5	75	7.5	7.5	10.75	7.5	7.5	7.5	7.5	134.75	7.5	7.5	10.75	10.75	7.5	7.5	7.5	7.5	10.75	14.5	7.5	10.75	10.75	7.5	7.5	10.75	7.5	116.75	7.5	30	7.5	7.5	7.5	7.5	7.5	7.5	83	10.75	97.5	7.5	7.5	94.25	7.5	7.5	7.5	94.25	7.5	7.5	7.5	75	7.5	7.5	15.25	143.375	10.75	7.5	7.5	75	7.5	7.5	15.25	190	19.75	7.5	7.5	7.5	75	10.75	139.25	7.5	116.75	7.5	7.5	7.5	7.5	175.25	7.5	10.75	7.5	10.75	7.5	19	192	7.5	52.5	10.75	15.25	7.5	30	7.5	7.5	7.5	7.5	7.5	7.5	97.5	7.5	7.5	7.5
	10.75	71.75	7.5	205.25	7.5	15.25	7.5	7.5	7.5	7.5	10.75	7.5	27	7.5	52.5	7.5	7.5	7.5	97.5	7.5	30	7.5	7.5	10.75	7.5	10.75	7.5	7.5	7.5	7.5	7.5	7.5	154.75	14.5	7.5	7.5	63.75	7.5	7.5	30	7.5	7.5	7.5	7.5	10.75	116.75	7.5	7.5	7.5	7.5	23.5	187.5	7.5	7.5	10.75	7.5	10.75	7.5	10.75	128	7.5	7.5	30	7.5	86.25	7.5	30	7.5	10.75	7.5	7.5	139.25	7.5	7.5	7.5	97.5	10.75	158.5	7.5	75	7.5	7.5	10.75	7.5	7.5	139.25	7.5	7.5	52.5	7.5	7.5	7.5	7.5	120	7.5	7.5	7.5	7.5	52.5	10.75	10.75	158.5	10.75	7.5	7.5	7.5	97.5	7.5	7.5	7.5	10.75	7.5	7.5	7.5	23.5	228	7.5	7.5	7.5	19.75	7.5	10.75	139.25	7.5	7.5	7.5	139.25	10.75
	7.5	10.75	7.5	27	7.5	7.5	30	7.5	7.5	7.5	7.5	7.5	15.25	30	10.75	7.5	7.5	30	7.5	7.5	10.75	30	7.5	10.75	7.5	7.5	7.5	19.75	130.25	75	7.5	7.5	7.5	7.5	10.75	192	7.5	8.5	149.5	7.5	152.75	7.5	75	10.75	113.5	7.5	168.25	23.5	10.75	7.5	7.5	7.5	30	7.5	231.75	19.75	7.5	7.5	7.5	7.5	130.25	19.75	7.5	7.5	7.5	7.5	7.5	41.25	19	7.5	7.5	10.75	7.5	157.25	7.5	7.5	7.5	10.75	7.5	7.5	30	7.5	7.5	7.5	52.5	10.75	7.5	7.5	7.5	116.75	10.75	7.5	94.25	7.5	75	7.5	7.5	7.5	7.5	7.5	7.5	7.5	7.5	75	7.5	30	7.5	7.5	7.5	7.5	19	7.5	10.75	7.5	7.5	7.5	7.5	10.75	7.5	175.25	7.5	7.5	7.5	7.5	10.75	7.5	7.5	7.5
	7.5	158.5	7.5	15.25	7.5	7.5	15.25	27	276	23.5	10.75	7.5	7.5	7.5	116.75	7.5	15.25	7.5	30	7.5	94.25	7.5	7.5	158.5	10.75	7.5	7.5	7.5	7.5	7.5	7.5	15.25	7.5	120	7.5	19	7.5	7.5	10.75	7.5	19.75	7.5	7.5	7.5	10.75	7.5	7.5	7.5	7.5	120	7.5	52.5	7.5	7.5	15.25	7.5	7.5	150.25	19	10.75	7.5	7.5	7.5	120	7.5	125.75	13	7.5	172.75	7.5	7.5	150.25	7.5	15.25	7.5	7.5	158.5	10.75	7.5	7.5	10.75	139.25	7.5	7.5	15.25	112.25	7.5	52.5	7.5	7.5	7.5	7.5	10.75	7.5	7.5	7.5	175.25	19.75	7.5	7.5	7.5	15.25	157.25	7.5	52.5	7.5	7.5	19.75	30.75	39.5	262.75	7.5	14.5	154.75	7.5	7.5	15.25	71.75	7.5	7.5	7.5	120	7.5	7.5	176.5	15.25	7.5	97.5
	52.5	10.75	7.5	7.5	7.5	7.5	7.5	7.5	7.5	7.5	75	7.5	7.5	75	7.5	7.5	157.25	7.5	7.5	52.5	7.5	7.5	7.5	7.5	7.5	139.25	10.75	7.5	10.75	176.5	7.5	134.75	7.5	7.5	7.5	10.75	7.5	7.5	15.25	7.5	7.5	7.5	10.75	158.5	10.75	7.5	7.5	7.5	10.75	7.5	7.5	15.25	176.5	7.5	7.5	7.5	10.75	14.5	7.5	7.5	10.75	7.5	7.5	7.5	7.5	7.5	7.5	7.5	7.5	7.5	10.75	19	7.5	7.5	52.5	7.5	10.75	7.5	7.5	7.5	94.25	7.5	7.5	30	7.5	7.5	7.5	10.75	19	75	7.5	15.25	7.5	7.5	52.5	7.5	7.5	7.5	7.5	10.75	14.5	7.5	7.5	94.25	7.5	7.5	52.5	7.5	7.5	7.5	7.5	175.25	7.5	7.5	7.5	7.5	157.25	7.5	94.25	75	7.5	7.5	7.5	7.5	7.5	7.5	7.5	7.5
	7.5	7.5	7.5	10.75	145.75	23.5	10.75	7.5	75	7.5	7.5	7.5	52.5	7.5	7.5	30	7.5	7.5	75	7.5	10.75	19	10.75	136	10.75	7.5	10.75	139.25	7.5	15.25	7.5	7.5	7.5	7.5	7.5	10.75	139.25	7.5	172	15.25	7.5	7.5	52.5	7.5	30	7.5	175.25	7.5	71.75	7.5	7.5	7.5	10.75	7.5	7.5	7.5	7.5	174	7.5	7.5	19	7.5	10.75	26.5	15.25	7.5	10.75	139.25	7.5	30	7.5	97.5	7.5	7.5	7.5	7.5	7.5	205.25	27	7.5	10.75	7.5	10.75	7.5	7.5	139.25	7.5	10.75	192	7.5	7.5	157.25	7.5	7.5	10.75	139.25	7.5	7.5	116.75	7.5	210	7.5	7.5	10.75	52.5	7.5	7.5	7.5	7.5	52.5	7.5	19.75	7.5	7.5	120	7.5	7.5	7.5	10.75	7.5	75	7.5	10.75	23.5	7.5	7.5	120	7.5
	14.5	154.75	7.5	71.75	7.5	7.5	7.5	7.5	30	7.5	7.5	7.5	7.5	19.75	175.25	7.5	7.5	120	7.5	7.5	7.5	127.75	7.5	7.5	7.5	7.5	7.5	7.5	7.5	7.5	7.5	7.5	19.75	231.75	10.75	7.5	7.5	7.5	7.5	7.5	7.5	30	7.5	7.5	10.75	7.5	19.75	7.5	7.5	13	25.25	7.5	7.5	7.5	10.75	19	7.5	10.75	7.5	7.5	210	15.25	7.5	239.75	15.25	7.5	7.5	7.5	52.5	7.5	30	7.5	7.5	120	7.5	75	7.5	7.5	15.25	7.5	7.5	7.5	194.5	19.75	7.5	10.75	7.5	7.5	7.5	30	7.5	7.5	10.75	7.5	7.5	7.5	30	7.5	10.75	7.5	19.75	7.5	7.5	97.5	7.5	7.5	130.25	19.75	7.5	7.5	75	7.5	7.5	75	7.5	75	7.5	30	7.5	7.5	7.5	89.75	7.5	190.75	7.5	7.5	7.5	7.5
	10.75	7.5	7.5	7.5	75	7.5	7.5	152.75	7.5	139.25	10.75	97.5	7.5	7.5	7.5	75	7.5	7.5	7.5	120	7.5	7.5	120	7.5	7.5	75	7.5	7.5	75	7.5	75	7.5	7.5	15.25	7.5	7.5	7.5	120	7.5	7.5	97.5	7.5	120	7.5	94.25	7.5	7.5	7.5	63.75	7.5	198	7.5	15.25	157.25	7.5	25.75	7.5	7.5	139.25	7.5	7.5	7.5	7.5	7.5	7.5	52.5	7.5	7.5	7.5	10.75	7.5	10.75	7.5	7.5	30	7.5	10.75	7.5	7.5	7.5	19.75	7.5	7.5	7.5	7.5	52.5	7.5	30	7.5	7.5	134.75	7.5	139.25	7.5	97.5	7.5	7.5	7.5	7.5	7.5	7.5	75	7.5	7.5	30	52.5	7.5	7.5	7.5	10.75	7.5	7.5	30	7.5	7.5	7.5	7.5	7.5	15.25	75	7.5	15.25	7.5	7.5	7.5	206.5	18	15.25
	7.5	7.5	15.25	7.5	7.5	150.25	7.5	19.75	7.5	7.5	7.5	7.5	7.5	94.25	10.75	7.5	7.5	97.5	7.5	7.5	7.5	75	7.5	7.5	52.5	7.5	7.5	30	7.5	120	7.5	75	7.5	7.5	7.5	19.75	130.25	7.5	7.5	7.5	7.5	88.625	7.5	7.5	10.75	30	7.5	7.5	7.5	7.5	7.5	30	7.5	7.5	7.5	236.75	15.25	7.5	10.75	7.5	7.5	127.75	19	7.5	52.5	7.5	7.5	15.25	109.75	14.5	7.5	116.75	7.5	7.5	7.5	190.75	23.5	7.5	7.5	7.5	26.25	7.5	30	7.5	139.25	7.5	7.5	10.75	19	7.5	15.25	30	7.5	30	7.5	7.5	118.375	10.75	173.625	19.75	7.5	7.5	7.5	52.5	7.5	7.5	139.25	7.5	7.5	154	10.75	139.25	7.5	7.5	120	7.5	116.75	7.5	134.75	7.5	7.5	7.5	7.5	94.25	7.5	15.25	7.5	7.5
	52.5	7.5	194.5	15.25	7.5	19	10.75	7.5	7.5	7.5	120	7.5	7.5	7.5	7.5	7.5	10.75	7.5	52.5	30	7.5	7.5	7.5	120	7.5	22.5	15.25	7.5	7.5	7.5	7.5	7.5	7.5	52.5	7.5	7.5	7.5	30	20.75	13	7.5	14.75	7.5	7.5	139.25	7.5	19	10.75	134.75	15.25	7.5	7.5	7.5	15.25	7.5	7.5	7.5	7.5	52.5	10.75	7.5	7.5	10.75	7.5	10.75	116.75	7.5	157.25	7.5	7.5	30	7.5	7.5	15.25	7.5	7.5	7.5	7.5	52.5	7.5	397	19.75	7.5	7.5	10.75	52.5	7.5	7.5	127.75	7.5	7.5	7.5	97.5	7.5	7.5	7.5	7.5	7.5	7.5	7.5	7.5	7.5	7.5	10.75	139.25	7.5	10.75	7.5	7.5	15.25	7.5	7.5	7.5	10.75	7.5	7.5	10.75	7.5	7.5	7.5	187.25	7.5	7.5	10.75	10.75	136	10.75	7.5
	7.5	7.5	7.5	10.75	7.5	7.5	7.5	7.5	219.75	7.5	7.5	7.5	19.75	175.25	7.5	7.5	94.25	7.5	7.5	7.5	15.25	7.5	7.5	7.5	10.75	225.75	10.75	7.5	154.75	7.5	97.5	7.5	7.5	7.5	97.5	7.5	7.5	7.5	180	7.5	7.5	10.75	12.5	102.125	7.5	7.5	127.75	7.5	7.5	7.5	7.5	120	7.5	172	7.5	7.5	75	7.5	7.5	116.75	7.5	210	10.75	7.5	7.5	7.5	7.5	7.5	7.5	97.5	7.5	120	7.5	89.75	10.75	14.75	7.5	10.75	7.5	28.5	40.75	7.5	75	7.5	7.5	7.5	7.5	19.75	7.5	7.5	7.5	7.5	7.5	7.5	139.25	10.75	7.5	120	7.5	7.5	158.5	10.75	7.5	7.5	7.5	7.5	7.5	7.5	10.75	7.5	7.5	7.5	10.75	158.5	7.5	116.75	7.5	7.5	154	10.75	22.5	15.25	7.5	7.5	7.5	7.5	10.75	7.5
	7.5	23.5	33.25	248.5	7.5	7.5	7.5	31	31.25	7.5	7.5	7.5	7.5	7.5	52.5	7.5	7.5	19.75	7.5	7.5	134.75	15.25	134.75	7.5	7.5	7.5	7.5	7.5	14.5	10.75	7.5	7.5	120	7.5	10.75	7.5	15.25	112.25	7.5	52.5	7.5	7.5	30	7.5	7.5	120	7.5	7.5	7.5	120	7.5	7.5	30	15.25	7.5	7.5	7.5	7.5	10.75	7.5	7.5	23.5	7.5	75	7.5	7.5	139.25	10.75	7.5	7.5	7.5	7.5	7.5	7.5	19.25	210.25	7.5	94.25	7.5	22.5	15.25	7.5	7.5	7.5	139.25	10.75	7.5	212.5	7.5	169.5	10.75	10.75	116.75	7.5	7.5	10.75	7.5	7.5	63.75	7.5	10.75	7.5	19.75	212.5	7.5	10.75	139.25	7.5	14.5	7.5	120	7.5	7.5	7.5	30	10.75	7.5	7.5	15.25	7.5	7.5	7.5	7.5	139.25	7.5	7.5	116.75	7.5
	52.5	10.75	10.75	7.5	71.75	10.75	7.5	25.75	7.5	176.5	15.25	97.5	7.5	7.5	7.5	7.5	7.5	175.25	7.5	7.5	7.5	7.5	10.75	7.5	7.5	30	7.5	120	7.5	7.5	7.5	94.25	7.5	7.5	139.25	7.5	7.5	7.5	7.5	7.5	7.5	120	7.5	7.5	30	7.5	7.5	75	7.5	7.5	7.5	116.75	7.5	7.5	7.5	23.5	190.75	7.5	71.75	7.5	7.5	10.75	7.5	7.5	7.5	7.5	7.5	7.5	7.5	10.75	186.5	7.5	52.5	7.5	7.5	7.5	7.5	7.5	7.5	15.25	7.5	7.5	7.5	7.5	7.5	7.5	7.5	15.25	10.75	19	75	7.5	7.5	7.5	7.5	139.25	7.5	52.5	7.5	7.5	7.5	7.5	7.5	15.25	7.5	7.5	7.5	23.75	22	7.5	7.5	7.5	23.5	10.75	7.5	10.75	7.5	7.5	7.5	7.5	7.5	7.5	7.5	10.75	7.5	7.5	15.25	7.5
	7.5	7.5	7.5	7.5	19	10.75	7.5	19	7.5	10.75	7.5	7.5	52.5	15.25	212.5	19.75	7.5	7.5	7.5	120	7.5	7.5	139.25	7.5	75	7.5	7.5	7.5	7.5	7.5	7.5	10.75	7.5	30	7.5	7.5	7.5	7.5	10.75	19	127.75	7.5	103.25	13	7.5	150.25	7.5	7.5	139.25	10.75	7.5	10.75	30	7.5	7.5	10.75	7.5	7.5	7.5	158.5	10.75	147	10.75	7.5	10.75	116.75	7.5	139.25	7.5	14.5	17.5	7.5	7.5	15.25	52.5	7.5	10.75	7.5	7.5	7.5	7.5	15.25	112.25	10.75	22.75	188.25	7.5	7.5	7.5	7.5	7.5	7.5	7.5	120	7.5	7.5	41.25	7.5	7.5	120	7.5	152.75	7.5	7.5	7.5	259.75	40.75	37.75	10.75	7.5	7.5	10.75	165	7.5	7.5	23.5	7.5	116.75	7.5	52.5	10.75	10.75	184.75	17.25	8.5	7.5	184.75	7.5
	7.5	7.5	7.5	7.5	192	7.5	7.5	10.75	7.5	7.5	7.5	7.5	7.5	7.5	7.5	7.5	8.5	107.75	7.5	7.5	7.5	7.5	7.5	112.25	15.25	7.5	10.75	7.5	10.75	52.5	7.5	10.75	139.25	7.5	7.5	139.25	10.75	10.75	7.5	52.5	7.5	7.5	7.5	7.5	7.5	19	10.75	30	7.5	145.75	7.5	7.5	7.5	75	7.5	7.5	52.5	15.25	7.5	10.75	10.75	19	7.5	30	7.5	7.5	7.5	10.75	7.5	10.75	10.75	116.75	7.5	176.5	7.5	7.5	23.5	29.25	38.5	7.5	30	7.5	7.5	52.5	10.75	7.5	94.25	10.75	7.5	7.5	7.5	97.5	7.5	7.5	7.5	30	7.5	7.5	7.5	7.5	7.5	19.75	7.5	7.5	10.75	7.5	7.5	7.5	7.5	7.5	10.75	30	7.5	175.25	7.5	123.25	7.5	10.75	7.5	7.5	139.25	7.5	7.5	7.5	7.5	8.5	12.75	30
	94.25	10.75	194.5	7.5	10.75	7.5	7.5	10.75	52.5	7.5	15.25	75	7.5	7.5	30	8.5	7.5	7.5	7.5	52.5	15.25	157.25	7.5	7.5	7.5	7.5	14.5	189.5	14.5	7.5	7.5	10.75	7.5	7.5	52.5	7.5	7.5	139.25	7.5	7.5	7.5	120	7.5	86.25	7.5	7.5	7.5	7.5	7.5	23.5	7.5	7.5	15.25	7.5	7.5	10.75	7.5	134.75	7.5	7.5	7.5	7.5	7.5	7.5	97.5	7.5	176.5	15.25	7.5	7.5	7.5	7.5	7.5	10.75	7.5	7.5	7.5	7.5	41.25	7.5	7.5	75	7.5	7.5	7.5	7.5	7.5	75	7.5	75	7.5	7.5	7.5	52.5	10.75	7.5	97.5	15.25	194.5	15.25	7.5	7.5	7.5	10.75	158.5	7.5	7.5	7.5	97.5	7.5	94.25	7.5	7.5	19.75	7.5	7.5	139.25	10.75	7.5	7.5	7.5	7.5	7.5	52.5	7.5	7.5	97.5	7.5
	10.75	7.5	19.75	7.5	75	7.5	7.5	158.5	7.5	7.5	157.25	7.5	94.25	10.75	7.5	140.5	8.5	30	7.5	7.5	7.5	7.5	30	7.5	10.75	139.25	7.5	7.5	7.5	120	7.5	113.5	10.75	7.5	7.5	30	7.5	7.5	7.5	75	7.5	7.5	7.5	7.5	7.5	15.25	7.5	139.25	7.5	10.75	7.5	10.75	30.625	273.375	7.5	19	187.5	7.5	75	7.5	7.5	175.25	19.75	7.5	7.5	7.5	10.75	7.5	7.5	7.5	7.5	10.75	7.5	7.5	175.25	19.75	7.5	7.5	48	49	54	7.5	7.5	120	7.5	10.75	7.5	7.5	10.75	7.5	7.5	97.5	7.5	7.5	94.25	7.5	7.5	7.5	7.5	7.5	7.5	30	7.5	75	7.5	7.5	75	10.75	7.5	30	10.75	7.5	7.5	7.5	30	7.5	7.5	7.5	7.5	10.75	14.5	22	7.5	7.5	157.25	7.5	7.5	7.5
	7.5	30	7.5	30	7.5	7.5	75	10.75	30	7.5	7.5	7.5	7.5	7.5	130.25	7.5	7.5	8.5	17.25	202.75	15.25	7.5	7.5	7.5	75	7.5	7.5	116.75	10.75	7.5	7.5	7.5	7.5	7.5	75	7.5	10.75	7.5	75	7.5	120	7.5	52.5	7.5	7.5	27	7.5	10.75	7.5	7.5	30	7.5	10.75	19.25	7.5	7.5	15.25	7.5	7.5	7.5	7.5	7.5	7.5	7.5	15.25	7.5	30	7.5	139.25	10.75	7.5	94.25	10.75	94.25	7.5	7.5	52.5	30	7.5	7.5	350.5	7.5	7.5	7.5	7.5	19	192	7.5	71.75	7.5	7.5	7.5	7.5	201.5	7.5	75	7.5	10.75	7.5	7.5	19.75	7.5	52.5	7.5	7.5	75	7.5	139.25	7.5	7.5	176.5	7.5	52.5	7.5	7.5	19.75	26.25	220.75	10.75	7.5	7.5	28.25	33	184	15.25	7.5	7.5	52.5
	52.5	7.5	97.5	7.5	7.5	94.25	7.5	7.5	7.5	97.5	7.5	175.25	7.5	7.5	19.75	7.5	7.5	7.5	7.5	7.5	7.5	7.5	120	7.5	7.5	41.25	7.5	7.5	7.5	7.5	10.75	158.5	10.75	7.5	7.5	26.5	241.75	10.75	7.5	7.5	7.5	7.5	7.5	120	7.5	137.75	7.5	7.5	7.5	116.75	10.75	7.5	7.5	7.5	127.75	7.5	7.5	52.5	7.5	10.75	10.75	71.75	7.5	7.5	144.375	10.75	7.5	52.5	7.5	10.75	7.5	7.5	30	7.5	7.5	30	7.5	7.5	10.75	7.5	15.25	7.5	210.5	7.5	7.5	75	10.75	75	7.5	52.5	10.75	75	7.5	26.25	7.5	7.5	7.5	14.5	7.5	7.5	228	7.5	7.5	7.5	52.5	7.5	7.5	7.5	7.5	52.5	15.25	7.5	7.5	75	7.5	7.5	7.5	7.5	7.5	139.25	7.5	30	7.5	7.5	7.5	7.5	120	7.5
	7.5	7.5	7.5	7.5	7.5	10.75	7.5	7.5	75	7.5	7.5	19.75	7.5	7.5	7.5	7.5	19.75	130.25	15.25	7.5	7.5	7.5	7.5	7.5	7.5	7.5	41.25	7.5	7.5	15.25	112.25	7.5	10.75	139.25	7.5	14.5	7.5	7.5	7.5	139.25	7.5	15.25	112.25	7.5	7.5	7.5	158.5	10.75	7.5	75	7.5	30	7.5	10.75	19	7.5	30	7.5	7.5	139.25	7.5	7.5	75	7.5	7.5	126.375	7.5	7.5	7.5	94.25	7.5	94.25	10.75	7.5	75	7.5	7.5	10.75	195.75	7.5	7.5	7.5	34	14.5	10.75	7.5	7.5	7.5	7.5	7.5	158.5	7.5	7.5	19.75	7.5	7.5	10.75	129	10.75	30	19	7.5	30	7.5	7.5	7.5	120	7.5	7.5	8.5	7.5	7.5	19.75	7.5	10.75	7.5	7.5	116.75	10.75	10.75	7.5	7.5	15.25	7.5	7.5	7.5	7.5	7.5
	7.5	118.375	10.75	14.75	26.875	7.5	7.5	7.5	7.5	7.5	30	7.5	7.5	75	7.5	7.5	7.5	10.75	176.5	7.5	94.25	10.75	7.5	10.75	19	25.75	7.5	120	7.5	7.5	7.5	7.5	7.5	7.5	7.5	10.75	7.5	10.75	7.5	10.75	7.5	7.5	7.5	7.5	75	7.5	10.75	7.5	7.5	7.5	7.5	7.5	7.5	7.5	7.5	7.5	7.5	75	7.5	7.5	7.5	75	7.5	7.5	75	10.75	30	7.5	175.25	7.5	30	7.5	7.5	7.5	10.75	7.5	7.5	7.5	15.25	7.5	157.25	7.5	15.25	7.5	7.5	7.5	7.5	10.75	15.25	7.5	10.75	30	7.5	7.5	7.5	139.25	7.5	7.5	176.5	7.5	10.75	52.5	7.5	19.75	175.25	7.5	7.5	7.5	21.25	192	7.5	7.5	230.5	7.5	116.75	7.5	7.5	7.5	7.5	7.5	7.5	19.75	201.25	7.5	128	10.75	7.5	97.5
	7.5	7.5	7.5	7.5	204.25	7.5	15.25	134.75	7.5	205.25	7.5	7.5	120	7.5	7.5	120	7.5	7.5	7.5	10.75	7.5	7.5	175.25	7.5	7.5	199.5	7.5	7.5	7.5	52.5	7.5	198	7.5	7.5	7.5	7.5	7.5	139.25	7.5	7.5	75	7.5	7.5	139.25	10.75	7.5	145.75	7.5	19.75	246	23.5	10.75	10.75	116.75	10.75	94.25	15.25	7.5	7.5	7.5	7.5	10.75	139.25	7.5	7.5	7.5	7.5	7.5	19.75	7.5	7.5	157.25	15.25	7.5	213.75	10.75	10.75	71.75	7.5	7.5	15.25	7.5	7.5	7.5	7.5	97.5	7.5	254.25	34.5	7.5	7.5	7.5	120	7.5	7.5	10.75	7.5	7.5	15.25	7.5	7.5	7.5	7.5	7.5	7.5	145.75	7.5	52.5	10.75	7.5	7.5	7.5	19.75	7.5	7.5	7.5	75	7.5	7.5	139.25	10.75	7.5	7.5	7.5	7.5	7.5	30	7.5
	97.5	7.5	7.5	7.5	7.5	7.5	7.5	7.5	7.5	27	7.5	7.5	7.5	75	7.5	7.5	52.5	7.5	7.5	71.75	7.5	7.5	19.75	7.5	7.5	7.5	7.5	10.75	15.25	7.5	7.5	25.25	7.5	10.75	94.25	15.25	7.5	7.5	7.5	30	7.5	120	7.5	7.5	7.5	7.5	23.5	7.5	7.5	7.5	7.5	30	7.5	7.5	7.5	7.5	165.25	7.5	141.5	19.75	7.5	7.5	7.5	7.5	10.75	7.5	120	7.5	7.5	10.75	7.5	7.5	7.5	7.5	19.75	7.5	7.5	7.5	7.5	7.5	97.5	7.5	7.5	15.25	7.5	7.5	30	7.5	15.25	7.5	7.5	7.5	7.5	7.5	19.75	7.5	7.5	10.75	52.5	7.5	7.5	30	10.75	7.5	7.5	23.5	7.5	7.5	7.5	7.5	120	7.5	7.5	7.5	7.5	120	7.5	7.5	7.5	7.5	7.5	7.5	15.25	210	7.5	75	7.5	30
	7.5	7.5	10.75	136	10.75	52.5	7.5	52.5	7.5	15.25	7.5	120	7.5	7.5	7.5	52.5	7.5	7.5	97.5	7.5	166.25	7.5	7.5	7.5	120	7.5	7.5	14.5	202.25	8.5	7.5	13	7.5	10.75	7.5	157.25	7.5	7.5	19.75	7.5	7.5	7.5	7.5	52.5	7.5	7.5	10.75	7.5	7.5	52.5	7.5	7.5	97.5	7.5	116.75	10.75	10.75	7.5	7.5	7.5	7.5	120	7.5	7.5	139.25	7.5	7.5	7.5	15.25	188.75	14.5	10.75	7.5	10.75	7.5	7.5	15.25	10.75	139.25	7.5	7.5	7.5	7.5	22.5	164.75	7.5	7.5	7.5	7.5	7.5	238.75	10.75	7.5	7.5	130.25	7.5	7.5	139.25	7.5	7.5	75	7.5	14.5	154.75	7.5	10.75	52.5	7.5	7.5	7.5	7.5	7.5	25.75	154.5	7.5	7.5	112.25	15.25	10.75	71.75	7.5	30	7.5	19	10.75	7.5	7.5	7.5
	7.5	120	7.5	7.5	7.5	7.5	7.5	15.25	112.25	7.5	30	7.5	30	7.5	30	7.5	139.25	7.5	7.5	7.5	17.5	7.5	75	7.5	7.5	7.5	154.75	14.5	7.5	7.5	7.5	7.5	7.5	139.25	7.5	7.5	7.5	10.75	34.5	7.5	134.75	15.25	7.5	7.5	75	7.5	7.5	75	7.5	7.5	52.5	7.5	152.75	7.5	7.5	7.5	7.5	7.5	19.75	7.5	7.5	7.5	7.5	30	7.5	7.5	75	7.5	7.5	10.75	7.5	7.5	7.5	176.5	7.5	7.5	134.75	7.5	7.5	7.5	7.5	75	7.5	7.5	7.5	7.5	10.75	94.25	7.5	7.5	30.75	7.5	97.5	7.5	7.5	139.25	7.5	7.5	7.5	120	7.5	7.5	94.25	7.5	7.5	7.5	7.5	7.5	15.25	27	7.5	10.75	19	7.5	116.75	10.75	7.5	7.5	7.5	15.25	157.25	7.5	52.5	7.5	7.5	7.5	15.25	134.75
	52.5	7.5	10.75	139.25	7.5	75	7.5	7.5	7.5	30	7.5	75	7.5	168.25	7.5	7.5	10.75	7.5	97.5	7.5	7.5	7.5	7.5	75	7.5	7.5	7.5	10.75	10.75	94.25	15.25	7.5	52.5	7.5	7.5	52.5	7.5	7.5	42.75	7.5	7.5	7.5	7.5	139.25	7.5	7.5	157.25	7.5	7.5	75	7.5	7.5	19.75	7.5	7.5	7.5	19.75	26.25	255.125	7.5	52.5	7.5	94.25	10.75	7.5	7.5	7.5	7.5	10.75	27.25	7.5	7.5	7.5	15.25	7.5	30	10.75	7.5	7.5	175.25	19.75	7.5	7.5	75	10.75	75	7.5	7.5	116.75	7.5	19.75	7.5	7.5	7.5	52.5	10.75	14.5	132.25	7.5	7.5	75	7.5	10.75	7.5	120	7.5	15.25	7.5	7.5	205.25	7.5	7.5	7.5	7.5	7.5	7.5	7.5	7.5	75	7.5	7.5	7.5	7.5	7.5	139.25	7.5	52.5	7.5
	7.5	7.5	7.5	7.5	30	7.5	10.75	7.5	7.5	7.5	30	7.5	7.5	23.5	10.75	7.5	136	10.75	7.5	7.5	8.5	149.5	7.5	7.5	7.5	120	7.5	7.5	7.5	7.5	146	7.5	7.5	7.5	75	7.5	7.5	7.5	286.5	7.5	7.5	7.5	52.5	10.75	7.5	7.5	15.25	10.75	139.25	7.5	7.5	30	7.5	14.5	132.25	7.5	7.5	7.5	10.75	7.5	7.5	120	7.5	7.5	7.5	15.25	157.25	7.5	7.5	326.25	14.5	10.75	7.5	30	7.5	7.5	194.5	7.5	7.5	7.5	7.5	7.5	15.25	18	188.5	7.5	7.5	7.5	10.75	7.5	7.5	75	7.5	30	7.5	7.5	10.75	7.5	30	7.5	7.5	7.5	7.5	30	7.5	7.5	176.5	7.5	52.5	7.5	7.5	7.5	7.5	19.75	175.25	7.5	10.75	7.5	7.5	7.5	10.75	63.75	7.5	63.75	10.75	7.5	7.5	7.5
	7.5	23.5	10.75	7.5	7.5	190.75	23.5	7.5	10.75	19	7.5	139.25	7.5	7.5	7.5	7.5	10.75	7.5	7.5	120	7.5	10.75	7.5	7.5	75	7.5	7.5	7.5	15.25	7.5	7.5	7.5	7.5	120	7.5	7.5	10.75	62.125	10.75	7.5	120	7.5	7.5	7.5	52.5	7.5	7.5	7.5	7.5	7.5	139.25	7.5	30	10.75	7.5	116.75	7.5	7.5	167.625	7.5	7.5	7.5	7.5	120	7.5	7.5	7.5	7.5	15.25	27	7.5	7.5	120	7.5	52.5	7.5	19.75	7.5	52.5	7.5	75	7.5	7.5	7.5	7.5	7.5	120	7.5	7.5	120	7.5	7.5	7.5	10.75	139.25	7.5	7.5	7.5	10.75	75	7.5	75	7.5	7.5	30	7.5	10.75	7.5	7.5	7.5	15.25	211.25	10.75	7.5	7.5	7.5	27.25	206.25	7.5	7.5	177.75	10.75	7.5	7.5	52.5	7.5	7.5	134.75
	7.5	210	7.5	7.5	30	7.5	7.5	7.5	7.5	172.75	7.5	10.75	7.5	7.5	10.75	7.5	7.5	10.75	71.75	7.5	7.5	75	7.5	30	7.5	7.5	15.25	7.5	18	7.5	164	19.75	7.5	7.5	7.5	21.75	148.125	7.5	7.5	7.5	7.5	7.5	157.25	15.25	7.5	7.5	10.75	7.5	116.75	7.5	10.75	7.5	7.5	7.5	7.5	10.75	7.5	15.25	18	7.5	10.75	7.5	30	7.5	7.5	172.75	19	7.5	7.5	7.5	10.75	113.5	7.5	7.5	7.5	75	7.5	7.5	7.5	7.5	10.75	7.5	7.5	97.5	7.5	7.5	7.5	7.5	7.5	7.5	7.5	7.5	7.5	7.5	7.5	52.5	7.5	7.5	139.25	7.5	7.5	10.75	7.5	75	7.5	157.25	15.25	7.5	7.5	7.5	10.75	14.5	7.5	7.5	10.75	7.5	10.75	7.5	30	7.5	10.75	7.5	7.5	7.5	15.25	7.5	7.5	15.25
	7.5	10.75	7.5	94.25	10.75	30	7.5	120	7.5	7.5	7.5	97.5	7.5	168.25	23.5	7.5	7.5	7.5	7.5	10.75	7.5	7.5	75	7.5	7.5	7.5	22.5	246	20.5	7.5	7.5	7.5	30	7.5	7.5	8.5	7.5	52.5	7.5	52.5	7.5	75	7.5	7.5	7.5	7.5	71.75	7.5	10.75	7.5	7.5	7.5	75	7.5	7.5	7.5	7.5	7.5	7.5	19.75	34.5	235	7.5	10.75	7.5	7.5	10.75	75	7.5	7.5	7.5	10.75	7.5	139.25	7.5	7.5	7.5	15.25	22.5	10.75	158.5	7.5	7.5	15.25	7.5	52.5	7.5	15.25	157.25	7.5	15.25	134.75	10.75	137.625	7.5	7.5	7.5	7.5	7.5	30	10.75	158.5	7.5	7.5	75	7.5	7.5	7.5	120	7.5	7.5	145	8.5	7.5	138.25	7.5	7.5	97.5	7.5	7.5	7.5	75	15.25	7.5	191.25	10.75	7.5	7.5
	7.5	7.5	120	7.5	7.5	7.5	7.5	7.5	7.5	97.5	7.5	7.5	7.5	7.5	7.5	7.5	19.75	201.25	7.5	147.25	10.75	7.5	7.5	7.5	75	7.5	30	7.5	7.5	154.75	7.5	7.5	7.5	130.25	8.5	7.5	224.5	10.75	7.5	7.5	7.5	7.5	7.5	15.25	291.5	10.75	7.5	139.25	10.75	7.5	120	7.5	7.5	148.25	13	34.5	235.25	7.5	7.5	7.5	7.5	7.5	7.5	136	7.5	75	7.5	7.5	7.5	19.75	7.5	7.5	7.5	10.75	94.25	7.5	30	7.5	187.25	7.5	7.5	7.5	7.5	157.25	7.5	7.5	7.5	7.5	7.5	7.5	7.5	7.5	7.5	10.75	7.5	75	15.25	27	182.75	7.5	7.5	7.5	7.5	30	7.5	7.5	7.5	75	7.5	52.5	7.5	15.25	7.5	30	8.5	7.5	75	7.5	113.5	10.75	30	7.5	212.5	7.5	15.25	7.5	7.5	7.5
	19	127.75	7.5	7.5	7.5	75	15.25	7.5	7.5	7.5	7.5	7.5	52.5	10.75	7.5	7.5	7.5	15.25	7.5	7.5	7.5	157.25	15.25	7.5	7.5	107.75	7.5	97.5	7.5	14.5	7.5	97.5	7.5	7.5	7.5	15.25	27	7.5	7.5	10.75	139.25	7.5	7.5	10.75	34.5	7.5	7.5	7.5	7.5	52.5	7.5	7.5	52.5	7.5	7.5	30.25	7.5	7.5	75	7.5	7.5	7.5	7.5	10.75	7.5	7.5	10.75	7.5	7.5	26.25	7.5	7.5	97.5	7.5	10.75	75	7.5	7.5	7.5	30	7.5	120	7.5	7.5	7.5	10.75	213.75	19.75	7.5	75	7.5	7.5	174.125	19.25	7.5	7.5	7.5	7.5	7.5	52.5	7.5	7.5	75	7.5	89.75	15.25	7.5	7.5	7.5	7.5	7.5	10.75	7.5	7.5	7.5	41.25	7.5	7.5	10.75	7.5	7.5	7.5	19.75	7.5	7.5	177	19	10.75
	10.75	7.5	7.5	15.25	18	7.5	157.25	7.5	75	7.5	26.5	180.75	7.5	158.5	7.5	75	7.5	7.5	7.5	7.5	10.75	7.5	75	7.5	7.5	8.5	7.5	7.5	7.5	10.75	7.5	7.5	7.5	7.5	52.5	7.5	7.5	7.5	19.75	7.5	7.5	30	7.5	7.5	19.75	7.5	52.5	7.5	7.5	7.5	30	7.5	7.5	7.5	10.75	27.25	7.5	7.5	7.5	139.25	10.75	15.25	7.5	7.5	97.5	7.5	116.75	7.5	7.5	134	15.25	7.5	7.5	7.5	7.5	7.5	7.5	120	7.5	7.5	7.5	7.5	7.5	7.5	234.25	14.5	10.75	7.5	7.5	52.5	7.5	7.5	7.5	7.5	7.5	7.5	7.5	10.75	19	7.5	7.5	10.75	7.5	97.5	7.5	10.75	7.5	7.5	52.5	7.5	23.5	165	7.5	75	7.5	7.5	7.5	7.5	10.75	112.25	15.25	7.5	7.5	7.5	15.25	18	7.5	7.5
	7.5	7.5	7.5	10.75	33.25	7.5	7.5	7.5	7.5	10.75	14.5	7.5	7.5	10.75	7.5	7.5	7.5	127.75	19	7.5	116.75	7.5	7.5	10.75	105.5	7.5	120	7.5	75	7.5	7.5	139.25	10.75	7.5	7.5	30	7.5	7.5	212.5	7.5	7.5	15.25	157.25	7.5	7.5	7.5	7.5	19.75	175.25	7.5	7.5	19.75	152.75	7.5	7.5	10.75	7.5	15.25	112.25	7.5	7.5	157.25	7.5	30	7.5	7.5	7.5	7.5	19.75	7.5	22.5	7.5	7.5	75	7.5	7.5	75	7.5	7.5	15.25	27	7.5	10.75	19	25.75	10.75	7.5	7.5	120	7.5	7.5	19.75	7.5	14.5	10.75	10.75	7.5	7.5	172.75	7.5	7.5	94.25	7.5	7.5	96.25	16.75	7.5	139.25	10.75	7.5	10.75	7.5	175.25	7.5	7.5	19.75	130.25	7.5	139.25	7.5	52.5	7.5	10.75	7.5	7.5	7.5	157.25	15.25
	7.5	120	7.5	7.5	37.25	7.5	7.5	15.25	7.5	7.5	7.5	7.5	75	7.5	7.5	75	7.5	7.5	10.75	7.5	7.5	10.75	7.5	7.5	7.5	30	7.5	7.5	10.75	7.5	30	7.5	7.5	175.25	19.75	7.5	10.75	7.5	15.25	7.5	30	7.5	7.5	7.5	7.5	131.625	7.5	7.5	7.5	10.75	7.5	7.5	7.5	7.5	139.25	10.75	7.5	7.5	7.5	7.5	30	7.5	7.5	7.5	190.75	23.5	10.75	7.5	194.5	7.5	184	7.5	134.75	7.5	10.75	7.5	7.5	7.5	75	10.75	224.5	7.5	7.5	7.5	7.5	7.5	7.5	10.75	7.5	7.5	7.5	175.25	7.5	132.25	7.5	14.5	75	7.5	7.5	10.75	139.25	7.5	7.5	163.75	16.75	7.5	30	7.5	7.5	7.5	10.75	7.5	19.75	7.5	30	7.5	7.5	94.25	7.5	75	7.5	7.5	137.625	7.5	7.5	30	7.5	7.5
	52.5	7.5	7.5	15.25	282.75	7.5	182.75	27	7.5	7.5	15.25	286.75	33.5	7.5	7.5	15.25	24.75	196.25	7.5	7.5	19.75	194.5	7.5	7.5	7.5	7.5	15.25	228	23.5	7.5	7.5	15.25	7.5	7.5	7.5	7.5	139.25	7.5	7.5	10.75	7.5	7.5	7.5	216.375	23	22.75	8.5	10.75	14.5	193.25	7.5	10.75	139.25	7.5	7.5	10.75	7.5	7.5	10.75	158.5	7.5	94.25	10.75	7.5	7.5	7.5	7.5	7.5	10.75	7.5	10.75	52.5	15.25	7.5	22.75	10.75	7.5	30	7.5	7.5	7.5	10.75	225.75	18	15.25	7.5	7.5	19	7.5	75	7.5	7.5	7.5	7.5	7.5	174	7.5	10.75	7.5	7.5	7.5	75	7.5	7.5	10.75	7.5	7.5	152.75	7.5	7.5	139.25	7.5	7.5	75	7.5	7.5	7.5	10.75	7.5	7.5	7.5	7.5	10.75	71.75	10.75	7.5	75	7.5
	7.5	68.75	7.5	145.75	7.5	7.5	7.5	7.5	7.5	7.5	75	10.75	28.5	22.5	7.5	7.5	7.5	7.5	10.75	71.75	7.5	7.5	7.5	94.25	10.75	7.5	7.5	7.5	7.5	7.5	7.5	134.75	7.5	7.5	15.25	131.5	7.5	10.75	174	14.5	7.5	75	7.5	19.75	7.5	13	7.5	7.5	7.5	10.75	7.5	7.5	7.5	7.5	7.5	158.5	7.5	7.5	7.5	10.75	30	7.5	7.5	10.75	7.5	7.5	10.75	158.5	10.75	7.5	7.5	7.5	7.5	7.5	207.5	7.5	7.5	7.5	52.5	7.5	7.5	7.5	15.25	7.5	7.5	7.5	7.5	243.5	23.5	7.5	7.5	7.5	120	7.5	7.5	10.75	7.5	128	7.5	7.5	75	7.5	7.5	7.5	52.5	7.5	7.5	19.75	7.5	7.5	7.5	10.75	7.5	7.5	7.5	120	7.5	7.5	75	7.5	52.5	7.5	171.125	19	10.75	7.5	7.5	30
	7.5	10	10.75	23.5	7.5	116.75	7.5	10.75	158.5	10.75	7.5	7.5	7.5	15.25	7.5	10.75	128	7.5	7.5	7.5	30	7.5	116.125	7.5	7.5	19.75	7.5	71.75	7.5	75	7.5	7.5	7.5	7.5	7.5	10.75	7.5	7.5	7.5	75	7.5	7.5	7.5	7.5	7.5	7.5	7.5	7.5	75	10.75	139.25	7.5	10.75	94.25	7.5	10.75	7.5	97.5	7.5	52.5	7.5	10.75	116.75	19	172.75	7.5	7.5	7.5	7.5	52.5	7.5	10.75	71.75	7.5	10.75	7.5	120	7.5	7.5	112.25	15.25	7.5	7.5	7.5	7.5	120	7.5	7.5	10.75	10.75	116.75	7.5	7.5	94.25	7.5	7.5	52.5	7.5	52.5	7.5	7.5	7.5	120	7.5	7.5	75	7.5	7.5	7.5	139.25	10.75	179.75	19	7.5	30	7.5	7.5	75	7.5	120	7.5	7.5	7.5	7.5	7.5	7.5	75	7.5
	60	7.5	7.5	7.5	7.5	10.75	7.5	7.5	7.5	7.5	7.5	7.5	10.75	7.5	7.5	7.5	7.5	85.25	7.5	75	7.5	116.125	15.25	7.5	7.5	175.25	7.5	10.75	7.5	7.5	19.75	246	23.5	10.75	7.5	52.5	7.5	7.5	10.75	7.5	7.5	112.25	15.25	7.5	175.25	7.5	15.25	7.5	7.5	7.5	7.5	7.5	7.5	7.5	97.5	7.5	7.5	7.5	7.5	7.5	7.5	10.75	7.5	7.5	7.5	7.5	75	7.5	120	7.5	7.5	7.5	7.5	7.5	10.75	7.5	7.5	7.5	120	7.5	10.75	7.5	7.5	139.25	7.5	7.5	7.5	7.5	7.5	7.5	7.5	7.5	7.5	10.75	7.5	30	7.5	108.75	7.5	7.5	10.75	30	7.5	7.5	120	7.5	7.5	7.5	52.5	7.5	7.5	8.5	10.75	7.5	7.5	116.75	10.75	7.5	7.5	7.5	7.5	154.75	7.5	7.5	75	7.5	7.5	97.5
	7.5	14.5	7.5	52.5	7.5	7.5	52.5	7.5	30	7.5	10.75	7.5	94.25	7.5	52.5	7.5	7.5	8.5	7.5	7.5	7.5	7.5	7.5	52.5	7.5	7.5	7.5	7.5	10.75	7.5	7.5	7.5	7.5	7.5	175.25	7.5	7.5	15.25	165.25	7.5	128	10.75	7.5	7.5	19.75	7.5	134.75	7.5	75	7.5	7.5	120	7.5	7.5	7.5	116.75	10.75	10.75	139.25	7.5	10.75	177.75	10.75	52.5	7.5	7.5	7.5	10.75	7.5	7.5	75	7.5	120	7.5	19	169.5	10.75	52.5	7.5	7.5	71.75	7.5	7.5	10.75	30	7.5	10.75	23.5	7.5	7.5	15.25	75	7.5	7.5	125.75	10.75	7.5	7.5	7.5	7.5	94.25	7.5	7.5	7.5	7.5	52.5	52.5	7.5	7.5	52.5	8.5	7.5	7.5	7.5	94.25	7.5	7.5	7.5	120	7.5	10.75	14.5	7.5	120	7.5	7.5	52.5	7.5
	7.5	154.25	7.5	7.5	7.5	120	7.5	97.5	7.5	10.75	243.75	27	7.5	7.5	7.5	10.75	219.5	21	8.5	7.5	192	10.75	7.5	7.5	7.5	30	10.75	27.25	225.5	7.5	7.5	7.5	7.5	7.5	19.75	7.5	7.5	7.5	7.5	30	7.5	7.5	7.5	30	7.5	7.5	7.5	7.5	7.5	7.5	7.5	7.5	113.5	10.75	30	7.5	7.5	7.5	7.5	7.5	7.5	7.5	7.5	7.5	7.5	120	7.5	94.25	7.5	7.5	7.5	30	7.5	7.5	7.5	7.5	7.5	7.5	7.5	97.5	7.5	120	7.5	7.5	15.25	157.25	7.5	29.25	7.5	10.75	176.5	7.5	7.5	7.5	15.25	145	7.5	7.5	15.25	157.25	7.5	7.5	15.25	75	7.5	7.5	7.5	120	7.5	7.5	130.25	7.5	75	7.5	10.75	7.5	7.5	30	7.5	30	7.5	7.5	52.5	7.5	30	7.5	7.5	94.25
	30	7.5	7.5	157.25	7.5	7.5	7.5	7.5	7.5	30	7.5	15.25	7.5	10.75	19.25	7.5	10.75	10.75	10.75	94.25	19	10.75	7.5	19.75	175.25	7.5	7.5	10.75	7.5	7.5	10.75	19	225.5	7.5	7.5	7.5	139.25	7.5	7.5	7.5	75	7.5	175.25	7.5	30	15.25	7.5	52.5	7.5	94.25	10.75	7.5	10.75	94.25	7.5	7.5	120	7.5	7.5	15.25	7.5	7.5	7.5	139.25	10.75	7.5	7.5	15.25	7.5	15.25	157.25	7.5	7.5	97.5	10.75	139.25	7.5	7.5	30	7.5	52.5	7.5	7.5	10.75	7.5	7.5	7.5	214	7.5	7.5	7.5	7.5	116.75	10.75	7.5	10.75	7.5	7.5	7.5	7.5	7.5	7.5	157.25	7.5	7.5	7.5	7.5	7.5	7.5	94.25	7.5	30	7.5	30	7.5	7.5	97.5	7.5	7.5	7.5	7.5	30	7.5	30	7.5	120	7.5	10.75
	7.5	97.5	7.5	15.25	7.5	7.5	120	7.5	97.5	7.5	7.5	7.5	7.5	14.75	210.25	7.5	7.5	7.5	7.5	7.5	7.5	7.5	30	7.5	7.5	7.5	7.5	10.75	7.5	52.5	7.5	7.5	19	10.75	7.5	7.5	10.75	165	23.5	10.75	7.5	7.5	19.75	7.5	7.5	212.5	7.5	7.5	157.25	15.25	7.5	7.5	7.5	10.75	7.5	7.5	7.5	7.5	10.75	131.5	7.5	139.25	7.5	7.5	7.5	7.5	7.5	134.75	7.5	7.5	7.5	7.5	52.5	7.5	7.5	7.5	7.5	120	7.5	7.5	7.5	52.5	7.5	14.5	7.5	132.25	14.5	7.5	30	7.5	97.5	7.5	7.5	7.5	7.5	136	8.5	15.25	154	14.5	109.75	7.5	7.5	30	10.75	19	187.5	15.25	7.5	10.75	7.5	7.5	120	7.5	75	7.5	7.5	7.5	15.25	27	182.75	7.5	154.75	7.5	7.5	7.5	7.5	7.5
	7.5	7.5	7.5	7.5	30	7.5	7.5	7.5	7.5	7.5	97.5	7.5	19	180.5	7.5	75	7.5	7.5	7.5	7.5	15.25	7.5	7.5	97.5	7.5	52.5	7.5	19	25.75	7.5	120	7.5	10.75	7.5	7.5	7.5	7.5	10.75	7.5	7.5	7.5	7.5	7.5	30	7.5	19.75	7.5	30	7.5	7.5	7.5	175.25	19.75	7.5	10.75	94.25	18	15.25	7.5	10.75	7.5	10.75	52.5	7.5	7.5	15.25	7.5	116.75	10.75	7.5	7.5	7.5	10.75	7.5	7.5	52.5	7.5	7.5	7.5	10.75	136	7.5	7.5	17.5	30	7.5	10.75	52.5	7.5	7.5	7.5	7.5	15.25	7.5	52.5	13	7.5	7.5	10.75	10.75	7.5	23.5	10.75	7.5	7.5	7.5	7.5	7.5	30	7.5	7.5	75	7.5	75	7.5	7.5	120	7.5	7.5	7.5	7.5	10.75	14.5	7.5	120	7.5	116.75	7.5
	52.5	7.5	120	7.5	7.5	15.25	7.5	52.5	7.5	7.5	7.5	52.5	10.75	19	7.5	7.5	7.5	15.25	10.75	7.5	176.5	10.75	7.5	7.5	7.5	7.5	30	7.5	199.5	7.5	7.5	7.5	139.25	7.5	19	10.75	7.5	7.5	7.5	7.5	15.25	157.25	7.5	7.5	52.5	7.5	75	7.5	7.5	7.5	75	7.5	7.5	30	7.5	7.5	169.25	7.5	7.5	139.25	7.5	7.5	7.5	7.5	7.5	212.5	7.5	7.5	7.5	7.5	63.75	7.5	16.75	216.5	19	10.75	7.5	7.5	94.25	10.75	10.75	14.5	230	24.5	7.5	7.5	7.5	7.5	7.5	134.75	7.5	242.5	27	7.5	7.5	7.5	30	7.5	7.5	7.5	7.5	190.75	7.5	7.5	19.75	230.5	19.75	7.5	7.5	120	7.5	7.5	7.5	7.5	7.5	52.5	7.5	7.5	120	7.5	7.5	7.5	7.5	7.5	7.5	7.5	10.75	7.5
	7.5	127.75	7.5	7.5	7.5	174	21.25	7.5	164	19.75	7.5	7.5	7.5	10.75	63.75	7.5	8.5	236.875	23.25	7.5	7.5	94.25	7.5	10.75	158.5	10.75	7.5	7.5	7.5	10.75	116.75	7.5	7.5	7.5	210	7.5	10.75	18	124.25	7.5	7.5	7.5	52.5	7.5	7.5	7.5	7.5	7.5	10.75	7.5	7.5	10.75	7.5	7.5	7.5	7.5	7.5	7.5	7.5	7.5	7.5	15.25	194.5	15.25	7.5	19.75	7.5	30	10.75	139.25	7.5	7.5	7.5	7.5	7.5	7.5	7.5	193.25	24	7.5	7.5	10.75	7.5	7.5	7.5	120	7.5	52.5	7.5	15.25	7.5	15.25	7.5	7.5	10.75	7.5	7.5	97.5	7.5	15.25	7.5	7.5	7.5	75	7.5	7.5	7.5	7.5	7.5	7.5	7.5	7.5	75	7.5	7.5	7.5	7.5	10.75	7.5	112.25	15.25	7.5	15.25	176.5	10.75	7.5	7.5	97.5
	7.5	19	7.5	175.25	19.75	7.5	10.75	7.5	7.5	7.5	7.5	97.5	7.5	7.5	7.5	7.5	75	7.5	10.75	7.5	7.5	10.75	7.5	7.5	7.5	7.5	97.5	75	7.5	7.5	7.5	130.25	7.5	7.5	15.25	7.5	67.25	8.5	7.5	202.75	19.75	7.5	7.5	7.5	139.25	10.75	7.5	15.25	14.5	132.25	7.5	158.5	7.5	10.75	204.75	13	7.5	128	10.75	7.5	7.5	7.5	7.5	7.5	7.5	7.5	7.5	10.75	71.75	7.5	7.5	10.75	139.25	7.5	15.25	157.25	7.5	7.5	22.5	7.5	7.5	7.5	7.5	19.75	7.5	7.5	94.25	7.5	7.5	7.5	52.5	7.5	7.5	7.5	14.5	75	7.5	7.5	7.5	212.5	7.5	71.75	10.75	7.5	10.75	7.5	7.5	10.75	139.25	7.5	10.75	7.5	7.5	97.5	15.25	157.25	7.5	94.25	7.5	7.5	7.5	7.5	8.5	7.5	7.5	10.75	7.5	7.5
	7.5	10.75	7.5	7.5	7.5	112.25	15.25	7.5	7.5	7.5	75	7.5	7.5	7.5	7.5	30	7.5	7.5	23.25	10.75	7.5	7.5	120	7.5	7.5	75	7.5	10.75	7.5	7.5	7.5	19.75	7.5	7.5	97.5	7.5	7.5	7.5	8.5	12.75	7.5	7.5	19.75	7.5	7.5	7.5	7.5	206.5	7.5	7.5	7.5	10.75	7.5	7.5	15.25	7.5	7.5	7.5	7.5	225.5	10.75	7.5	52.5	7.5	116.75	10.75	7.5	7.5	7.5	172	19.75	7.5	7.5	30	7.5	7.5	75	7.5	15.25	7.5	52.5	7.5	7.5	175.25	7.5	7.5	10.75	7.5	120	7.5	7.5	7.5	10.75	222.5	26.5	7.5	30	7.5	7.5	19.75	7.5	7.5	7.5	7.5	116.75	10.75	94.25	7.5	7.5	14.5	30.5	237.75	10.75	7.5	7.5	7.5	7.5	7.5	7.5	75	7.5	13	276.25	26	10.75	116.75	7.5	30
	116.75	10.75	7.5	7.5	30	7.5	7.5	7.5	120	7.5	7.5	7.5	19.75	246	23.5	10.75	7.5	10.75	265.125	10.75	7.5	7.5	7.5	94.25	7.5	7.5	7.5	139.25	7.5	15.25	7.5	7.5	7.5	10.75	7.5	10.75	174	7.5	7.5	132.25	7.5	7.5	175.25	7.5	7.5	15.25	7.5	18	15.25	7.5	7.5	15.25	134.75	7.5	7.5	152.75	19.75	7.5	10.75	27.25	10.75	7.5	7.5	7.5	52.5	7.5	7.5	139.25	7.5	10.75	7.5	7.5	7.5	10.75	19	7.5	7.5	7.5	7.5	7.5	7.5	120	7.5	7.5	30	7.5	10.75	7.5	7.5	7.5	7.5	167.25	7.5	7.5	7.5	7.5	7.5	120	7.5	7.5	7.5	52.5	7.5	52.5	7.5	7.5	7.5	139.25	7.5	10.75	7.5	7.5	7.5	7.5	7.5	52.5	15.25	157.25	7.5	7.5	7.5	7.5	15.25	14.5	30	7.5	71.75	10.75
	7.5	52.5	7.5	52.5	7.5	52.5	7.5	7.5	7.5	10.75	7.5	7.5	7.5	7.5	7.5	30	7.5	7.5	15.25	7.5	7.5	19.75	7.5	10.75	7.5	7.5	75	7.5	7.5	27	7.5	7.5	7.5	94.25	7.5	7.5	14.5	75	7.5	14.5	10.75	7.5	7.5	7.5	7.5	134.75	116.75	7.5	7.5	7.5	7.5	7.5	7.5	10.75	7.5	7.5	7.5	7.5	7.5	7.5	7.5	7.5	19.75	175.25	7.5	7.5	7.5	10.75	7.5	7.5	7.5	97.5	7.5	10.75	192	7.5	7.5	63.75	7.5	128	7.5	7.5	7.5	150.25	7.5	25.75	19	7.5	7.5	10.75	14.5	17.5	10.75	7.5	7.5	75	7.5	7.5	7.5	10.75	139.25	7.5	7.5	7.5	52.5	7.5	7.5	10.75	7.5	7.5	7.5	52.5	7.5	10.75	71.75	7.5	7.5	7.5	7.5	15.25	134.75	7.5	7.5	10.75	7.5	52.5	7.5	7.5
	7.5	10.75	7.5	7.5	75	7.5	7.5	15.25	7.5	139.25	7.5	116.75	10.75	7.5	7.5	8.5	167.5	7.5	7.5	10.75	14.5	210	7.5	7.5	7.5	10.75	7.5	7.5	7.5	160.25	7.5	13	7.5	7.5	157.25	7.5	10.75	7.5	7.5	7.5	7.5	7.5	17.25	165.5	7.5	7.5	10.75	7.5	7.5	75	10.75	7.5	19.75	194.5	7.5	7.5	7.5	139.25	10.75	7.5	19.75	7.5	7.5	7.5	30	10.75	139.25	7.5	10.75	7.5	30	7.5	7.5	7.5	7.5	7.5	176.5	13	7.5	10.75	75	7.5	7.5	19	7.5	199.5	7.5	7.5	120	7.5	7.5	7.5	94.25	8.5	7.5	8.5	85.25	7.5	7.5	10.75	7.5	7.5	139.25	7.5	7.5	97.5	7.5	7.5	75	7.5	30	7.5	75	7.5	7.5	120	7.5	7.5	7.5	7.5	7.5	15.25	7.5	7.5	7.5	7.5	120	7.5
	7.5	19	10.75	192	7.5	30	7.5	89.75	7.5	7.5	7.5	7.5	7.5	7.5	41.25	7.5	15.25	7.5	7.5	7.5	7.5	7.5	14.5	10.75	7.5	23.5	201	19.75	7.5	7.5	181.25	16.25	13	103.25	15.25	7.5	7.5	7.5	15.25	10.75	128	7.5	8.5	7.5	30	7.5	7.5	52.5	7.5	7.5	139.25	7.5	7.5	7.5	7.5	75	7.5	7.5	7.5	7.5	212.5	7.5	7.5	10.75	7.5	52.5	7.5	7.5	139.25	7.5	7.5	10.75	23.5	7.5	7.5	112.25	13	7.5	7.5	7.5	7.5	30	7.5	10.75	7.5	7.5	7.5	7.5	7.5	94.25	10.75	7.5	7.5	130.25	7.5	7.5	10.75	139.25	7.5	136	7.5	7.5	10.75	7.5	10.75	187.5	7.5	52.5	7.5	15.25	7.5	52.5	7.5	7.5	7.5	7.5	101.625	15.25	146.625	10.75	7.5	27	7.5	7.5	86.25	7.5	7.5	7.5
	7.5	30.25	7.5	19	10.75	7.5	75	7.5	75	7.5	75	10.75	23.5	190.75	7.5	7.5	7.5	52.5	15.25	7.5	15.25	22.5	222	7.5	7.5	7.5	7.5	7.5	7.5	7.5	10.75	7.5	7.5	7.5	7.5	10.75	7.5	7.5	176.5	7.5	7.5	30	7.5	7.5	7.5	130.25	7.5	7.5	97.5	7.5	7.5	7.5	75	7.5	108.75	7.5	7.5	10.75	7.5	75	15.25	7.5	7.5	94.25	7.5	7.5	7.5	7.5	7.5	7.5	97.5	7.5	238	7.5	7.5	15.25	7.5	7.5	15.25	7.5	7.5	7.5	120	7.5	7.5	15.25	212.5	19.75	7.5	7.5	7.5	154.75	14.5	7.5	30	7.5	30	7.5	7.5	10.75	7.5	7.5	10.75	7.5	7.5	23.5	7.5	7.5	10.75	31	175.5	7.5	247.75	30.75	19.75	7.5	10.75	7.5	7.5	7.5	7.5	160.25	7.5	7.5	7.5	8.5	7.5	75
	10.75	256	10.75	7.5	7.5	7.5	15.25	157.25	7.5	30	7.5	7.5	7.5	7.5	14.5	10.75	7.5	7.5	112.25	7.5	7.5	7.5	7.5	10.75	139.25	7.5	10.75	7.5	139.25	10.75	94.25	10.75	10.75	7.5	7.5	19	7.5	7.5	10.75	7.5	7.5	7.5	139.25	10.75	7.5	8.5	7.5	8.5	7.5	7.5	10.75	7.5	7.5	30	7.5	7.5	7.5	174	7.5	7.5	7.5	7.5	139.25	7.5	7.5	127.375	15.25	146.625	10.75	52.5	7.5	7.5	17.5	14.5	52.5	7.5	7.5	15.25	231.75	7.5	97.5	7.5	7.5	7.5	7.5	7.5	7.5	7.5	30	7.5	7.5	7.5	10.75	7.5	7.5	175.25	7.5	7.5	120	7.5	7.5	15.25	195.75	10.75	7.5	10.75	7.5	7.5	7.5	7.5	7.5	7.5	13	7.5	7.5	7.5	7.5	7.5	52.5	7.5	139.25	7.5	7.5	15.25	112.25	12.75	7.5	7.5
	7.5	7.5	7.5	7.5	7.5	7.5	7.5	7.5	94.25	7.5	30	7.5	97.5	7.5	109.75	7.5	15.25	194.5	15.25	7.5	7.5	7.5	7.5	7.5	7.5	7.5	151.5	14.5	7.5	7.5	7.5	7.5	139.25	7.5	7.5	243.5	23.5	7.5	7.5	175.25	19.75	7.5	7.5	7.5	10.75	116.75	7.5	12.75	184.75	15.25	154	7.5	30	7.5	195.25	10.75	7.5	14.5	10.75	7.5	7.5	7.5	10.75	7.5	7.5	7.5	7.5	7.5	7.5	7.5	7.5	130.25	7.5	10.75	7.5	7.5	30	7.5	15.25	7.5	7.5	7.5	134.75	15.25	134.75	15.25	7.5	7.5	17.25	202.75	15.25	7.5	75	7.5	7.5	19.75	7.5	30	7.5	7.5	7.5	7.5	7.5	7.5	75	7.5	7.5	10.75	7.5	7.5	75	7.5	7.5	30	7.5	139.25	10.75	7.5	7.5	7.5	10.75	7.5	30	7.5	7.5	16.25	214	19
	75	7.5	7.5	134.75	15.25	75	7.5	71.75	10.75	75	7.5	7.5	7.5	7.5	7.5	7.5	75	7.5	7.5	10.75	158.5	10.75	15.25	7.5	7.5	7.5	7.5	10.75	7.5	7.5	10.75	14.5	7.5	7.5	30	7.5	10.75	75	7.5	7.5	7.5	7.5	7.5	120	7.5	7.5	30	7.5	7.5	7.5	15.25	7.5	7.5	15.25	22.5	7.5	120	7.5	7.5	7.5	176.5	15.25	30	7.5	175.25	7.5	7.5	15.25	7.5	7.5	7.5	8.5	7.5	7.5	7.5	75	7.5	30	7.5	30	7.5	75	7.5	7.5	7.5	7.5	7.5	7.5	8.5	7.5	7.5	7.5	7.5	30	7.5	7.5	7.5	7.5	52.5	10.75	52.5	7.5	15.25	7.5	7.5	203.25	26.5	14.5	10.75	94.25	7.5	7.5	128	10.75	7.5	7.5	75	7.5	116.75	10.75	145.75	7.5	7.5	175.25	19.75	7.5	7.5	10.75
	7.5	7.5	30	7.5	7.5	7.5	7.5	10.75	7.5	7.5	7.5	19.75	7.5	75	7.5	10.75	7.5	52.5	7.5	7.5	7.5	7.5	176.5	7.5	10.75	23.5	190.75	7.5	7.5	7.5	7.5	109.75	7.5	75	7.5	7.5	7.5	7.5	75	7.5	7.5	120	7.5	7.5	7.5	30	10.75	139.25	7.5	7.5	7.5	7.5	52.5	7.5	7.5	7.5	7.5	14.5	10.75	7.5	10.75	7.5	7.5	7.5	19.75	7.5	7.5	176.5	7.5	109.75	8.5	146.25	10.75	7.5	7.5	7.5	97.5	7.5	120	7.5	7.5	7.5	52.5	7.5	7.5	7.5	130.25	8.5	7.5	7.5	190.75	23.5	7.5	7.5	75	7.5	10.75	14.5	7.5	139.25	7.5	7.5	134.75	7.5	94.25	7.5	7.5	52.5	7.5	7.5	157.25	7.5	7.5	71.75	7.5	75	7.5	7.5	7.5	7.5	23.5	7.5	7.5	7.5	7.5	52.5	7.5	7.5
	7.5	120	7.5	94.25	7.5	120	7.5	7.5	7.5	7.5	7.5	175.25	7.5	7.5	7.5	215.5	7.5	7.5	52.5	10.75	7.5	7.5	10.75	7.5	7.5	7.5	7.5	7.5	19.75	194.5	7.5	7.5	139.25	7.5	7.5	13	10.75	7.5	7.5	7.5	10.75	7.5	7.5	7.5	139.25	7.5	7.5	7.5	7.5	23.5	10.75	7.5	7.5	75	7.5	154.75	14.5	132.25	7.5	7.5	52.5	7.5	15.25	7.5	7.5	7.5	7.5	10.75	7.5	14.5	10.75	10.75	7.5	192	10.75	7.5	7.5	7.5	7.5	7.5	15.25	7.5	10.75	7.5	120	7.5	7.5	10.75	139.25	7.5	7.5	10.75	7.5	7.5	7.5	97.5	7.5	154.75	7.5	7.5	7.5	75	7.5	7.5	10.75	7.5	7.5	97.5	7.5	7.5	15.25	7.5	7.5	10.75	7.5	7.5	30	10.75	7.5	52.5	10.75	71.75	10.75	7.5	52.5	7.5	30	7.5
	52.5	7.5	7.5	10.75	137.75	7.5	71.75	10.75	19	10.75	7.5	7.5	7.5	7.5	15.25	24.75	7.5	8.5	7.5	139.25	7.5	7.5	15.25	27	203.625	7.5	7.5	30	7.5	10.75	75	7.5	10.75	7.5	8.5	193.25	14.5	7.5	7.5	7.5	139.25	7.5	97.5	7.5	10.75	7.5	7.5	75	7.5	258	22.5	15.25	7.5	7.5	52.5	7.5	10.75	7.5	7.5	30	7.5	240	27	7.5	7.5	15.25	112.25	7.5	7.5	7.5	7.5	7.5	7.5	19	7.5	97.5	7.5	15.25	7.5	7.5	22.5	7.5	94.25	7.5	7.5	7.5	7.5	7.5	7.5	7.5	97.5	7.5	7.5	75	7.5	7.5	7.5	7.5	7.5	10.75	7.5	7.5	7.5	120	7.5	7.5	94.25	7.5	52.5	7.5	15.25	7.5	15.25	134.75	7.5	7.5	7.5	139.25	7.5	7.5	7.5	7.5	7.5	8.5	7.5	120	7.5	52.5
	7.5	7.5	7.5	7.5	27	15.25	7.5	7.5	267.75	7.5	10.75	219	31.5	20.5	7.5	7.5	7.5	130.25	7.5	7.5	75	7.5	7.5	7.5	10.75	7.5	97.5	7.5	30	7.5	7.5	94.25	10.75	7.5	7.5	7.5	7.5	134.75	15.25	7.5	7.5	7.5	7.5	52.5	7.5	7.5	7.5	7.5	7.5	7.5	7.5	7.5	7.5	7.5	7.5	7.5	7.5	7.5	139.25	10.75	10.75	14.5	7.5	7.5	7.5	7.5	10.75	19	192	10.75	7.5	7.5	7.5	10.75	52.5	7.5	202	27	7.5	7.5	37	263.75	10.75	7.5	7.5	157.25	15.25	7.5	7.5	8.5	7.5	7.5	7.5	7.5	130.25	7.5	10.75	14.5	207.5	19	7.5	7.5	52.5	7.5	52.5	7.5	10.75	30	7.5	7.5	176.5	7.5	7.5	7.5	14.5	10.75	30	7.5	10.75	94.25	7.5	19.5	8.5	17.25	7.5	7.5	75	7.5
	7.5	97.5	10.75	14.5	7.5	7.5	7.5	15.25	29.5	112.25	7.5	7.5	7.5	18	7.5	15.25	7.5	7.5	7.5	30	7.5	7.5	10.75	14.5	153.125	7.5	7.5	7.5	7.5	7.5	75	7.5	7.5	21.25	19	10.75	7.5	152.75	7.5	7.5	75	75	7.5	7.5	7.5	23.5	10.75	7.5	19.75	152.75	7.5	7.5	15.25	10.75	7.5	97.5	7.5	41.25	7.5	7.5	7.5	7.5	7.5	10.75	10.75	7.5	7.5	75	7.5	7.5	139.25	10.75	7.5	7.5	7.5	7.5	10.75	7.5	7.5	7.5	10.75	7.5	30	7.5	75	7.5	7.5	7.5	17.5	131.5	7.5	175.25	19.75	7.5	8.5	52.5	7.5	75	7.5	94.25	7.5	30	7.5	7.5	7.5	7.5	7.5	7.5	7.5	7.5	10.75	7.5	7.5	7.5	26.5	7.5	7.5	7.5	7.5	7.5	17.5	240	7.5	162.25	10.75	52.5	7.5	52.5
	7.5	7.5	7.5	26.5	7.5	7.5	10.75	7.5	14.5	15.25	7.5	7.5	7.5	15.25	7.5	112.25	7.5	7.5	120	7.5	7.5	7.5	52.5	7.5	7.5	52.5	7.5	176.5	10.75	7.5	7.5	7.5	19.75	236.75	7.5	7.5	7.5	19.75	7.5	7.5	7.5	7.5	7.5	15.25	7.5	190.75	7.5	7.5	7.5	7.5	7.5	10.75	38.5	269.5	7.5	7.5	41.25	7.5	7.5	7.5	7.5	139.25	10.75	19	34	188	7.5	7.5	75	7.5	7.5	7.5	10.75	202.75	7.5	7.5	97.5	7.5	127.75	7.5	10.75	89.75	15.25	7.5	7.5	10.75	116.75	7.5	7.5	7.5	94.25	7.5	7.5	63.75	7.5	7.5	7.5	7.5	52.5	10.75	7.5	7.5	19.75	231.75	15.25	97.5	7.5	10.75	10.75	176.5	15.25	7.5	75	7.5	36.25	7.5	10.75	23.5	168.25	7.5	7.5	10.75	7.5	7.5	7.5	7.5	7.5	7.5
	15.25	7.5	7.5	264.75	7.5	7.5	192	7.5	10.75	7.5	7.5	120	7.5	7.5	7.5	7.5	19.75	130.25	7.5	7.5	75	7.5	7.5	120	7.5	7.5	7.5	15.25	10.75	139.25	7.5	7.5	7.5	7.5	14.5	10.75	7.5	7.5	14.5	132.25	7.5	139.25	7.5	89.75	7.5	7.5	10.75	139.25	7.5	7.5	7.5	7.5	15.25	7.5	7.5	205.25	7.5	7.5	15.25	27	7.5	7.5	7.5	7.5	7.5	18	188.5	7.5	7.5	30	7.5	75	7.5	21.75	8.5	80.75	7.5	10.75	19	7.5	158.5	7.5	7.5	7.5	7.5	7.5	7.5	52.5	7.5	7.5	10.75	30	7.5	7.5	7.5	15.25	157.25	7.5	7.5	7.5	7.5	10.75	7.5	10.75	7.5	7.5	7.5	139.25	7.5	7.5	7.5	7.5	7.5	7.5	298.5	10.75	7.5	7.5	7.5	7.5	97.5	7.5	7.5	7.5	7.5	10.75	158.5	7.5
	89.75	7.5	7.5	21.25	19	10.75	19	7.5	7.5	7.5	7.5	7.5	7.5	7.5	15.25	7.5	7.5	7.5	7.5	139.25	7.5	71.75	10.75	7.5	7.5	7.5	7.5	7.5	7.5	7.5	7.5	203.25	7.5	30	22	7.5	7.5	7.5	10.75	7.5	7.5	10.75	7.5	7.5	75	7.5	7.5	7.5	7.5	116.75	10.75	7.5	7.5	7.5	15.25	27	7.5	7.5	7.5	224.5	10.75	7.5	120	7.5	7.5	15.25	10.75	30	7.5	7.5	7.5	10.75	30	7.5	7.5	13	7.5	7.5	7.5	7.5	10.75	7.5	7.5	139.25	10.75	7.5	120	7.5	7.5	7.5	10.75	7.5	19.75	7.5	30	7.5	7.5	7.5	7.5	15.25	7.5	19	7.5	7.5	7.5	52.5	7.5	7.5	85.25	7.5	7.5	15.25	7.5	7.5	15.25	52.5	7.5	52.5	7.5	7.5	7.5	24	22.5	15.25	7.5	7.5	10.75	7.5
	7.5	23.5	190.75	7.5	7.5	7.5	10.75	52.5	7.5	10.75	210	7.5	75	7.5	231.75	19.75	7.5	7.5	10.75	10.75	7.5	7.5	7.5	7.5	15.25	153.375	15.25	7.5	7.5	10.75	14.5	26.5	7.5	7.5	239.25	10.75	97.5	7.5	7.5	7.5	120	7.5	7.5	10.75	7.5	75	7.5	52.5	7.5	7.5	7.5	75	7.5	7.5	7.5	7.5	7.5	75	7.5	7.5	7.5	7.5	7.5	75	7.5	7.5	7.5	7.5	19.75	194.5	10.75	116.75	7.5	7.5	7.5	7.5	7.5	7.5	7.5	120	7.5	7.5	7.5	7.5	52.5	52.5	7.5	7.5	139.25	7.5	116.75	7.5	130.25	7.5	7.5	7.5	7.5	120	7.5	18	256	33.25	15.25	7.5	7.5	10.75	75	7.5	8.5	7.5	7.5	190	19.75	7.5	7.5	10.75	7.5	7.5	7.5	120	7.5	148.25	7.5	7.5	7.5	10.75	7.5	97.5
	7.5	10.75	7.5	7.5	7.5	7.5	7.5	7.5	7.5	7.5	23.5	7.5	7.5	7.5	10.75	7.5	7.5	7.5	23.5	7.5	7.5	139.25	7.5	7.5	30	7.5	229.125	7.5	7.5	7.5	7.5	7.5	145.75	7.5	14.5	7.5	7.5	7.5	10.75	94.25	7.5	7.5	7.5	23.5	7.5	7.5	175.25	7.5	7.5	97.5	7.5	10.75	94.25	10.75	7.5	15.25	7.5	7.5	120	7.5	7.5	139.25	10.75	7.5	7.5	7.5	7.5	7.5	7.5	7.5	7.5	7.5	7.5	15.25	112.25	10.75	130.25	19.75	7.5	7.5	10.75	23.5	145.75	7.5	7.5	7.5	7.5	7.5	10.75	7.5	7.5	7.5	10.75	7.5	19.75	175.25	7.5	7.5	7.5	7.5	15.25	7.5	7.5	30	7.5	23.5	7.5	7.5	107.75	8.5	7.5	7.5	7.5	7.5	10.75	71.75	7.5	139.25	7.5	7.5	7.5	10.75	123.25	23.5	10.75	14.5	165	7.5
	7.5	7.5	19	192	10.75	75	7.5	15.25	157.25	7.5	10.75	7.5	15.25	7.5	7.5	7.5	10.75	14.5	280.75	7.5	7.5	10.75	7.5	139.25	7.5	10.75	34	19	10.75	19	10.75	10.75	23.5	7.5	10.75	7.5	7.5	15.25	112.25	7.5	7.5	10.75	7.5	187.5	10.75	7.5	19.75	7.5	7.5	15.25	7.5	7.5	7.5	139.25	7.5	133.125	10.75	73.375	7.5	10.75	7.5	7.5	7.5	7.5	15.25	134.75	10.75	158.5	10.75	7.5	7.5	52.5	7.5	94.25	7.5	158.5	10.75	7.5	7.5	7.5	7.5	7.5	7.5	120	7.5	7.5	19.75	175.25	7.5	7.5	30	7.5	139.25	7.5	7.5	7.5	94.25	7.5	10.75	14.5	192	7.5	7.5	7.5	7.5	190.75	7.5	7.5	7.5	7.5	10.75	139.25	7.5	7.5	139.25	7.5	71.75	10.75	7.5	7.5	7.5	139.25	7.5	7.5	7.5	7.5	19.75	7.5
	75	7.5	10.75	7.5	75	7.5	7.5	7.5	7.5	7.5	7.5	7.5	157.25	7.5	130.25	19.75	7.5	7.5	19.75	7.5	7.5	7.5	7.5	10.75	7.5	7.5	7.5	7.5	7.5	172.75	7.5	7.5	7.5	7.5	52.5	7.5	7.5	7.5	7.5	7.5	10.75	158.5	7.5	7.5	7.5	7.5	7.5	7.5	7.5	176.5	10.75	52.5	7.5	7.5	7.5	7.5	7.5	7.5	7.5	242.5	7.5	52.5	7.5	7.5	75	7.5	52.5	7.5	52.5	7.5	7.5	7.5	7.5	10.75	7.5	7.5	7.5	7.5	10.75	23.5	7.5	7.5	7.5	7.5	7.5	52.5	7.5	7.5	7.5	157.25	15.25	7.5	7.5	10.75	7.5	7.5	10.75	7.5	7.5	7.5	7.5	10.75	158.5	10.75	7.5	7.5	7.5	120	7.5	52.5	7.5	7.5	30	7.5	7.5	7.5	10.75	7.5	7.5	75	7.5	7.5	7.5	97.5	7.5	52.5	7.5	7.5
	7.5	7.5	7.5	10.75	7.5	7.5	19.75	7.5	7.5	95.875	7.5	8.5	7.5	71.75	10.75	7.5	75	7.5	7.5	7.5	19.75	212.5	15.25	7.5	7.5	7.5	7.5	10.75	14.5	7.5	7.5	7.5	97.5	7.5	7.5	75	10.75	116.75	7.5	139.25	7.5	7.5	7.5	97.5	7.5	120	7.5	15.25	7.5	7.5	7.5	7.5	7.5	71.75	10.75	7.5	7.5	30	7.5	31.75	20.75	7.5	7.5	7.5	7.5	7.5	7.5	7.5	7.5	7.5	19.75	152.75	7.5	7.5	120	7.5	7.5	139.25	10.75	123.25	7.5	10.75	94.25	7.5	7.5	7.5	7.5	15.25	7.5	7.5	7.5	7.5	7.5	128	7.5	136.25	12.75	7.5	19.75	198.75	14.5	7.5	7.5	183	15.25	7.5	30	7.5	7.5	7.5	120	7.5	7.5	157.25	15.25	7.5	7.5	205.25	27	15.25	7.5	7.5	30	7.5	30	7.5	7.5	97.5
	7.5	15.25	7.5	139.25	7.5	7.5	175.25	7.5	62.125	10.75	7.5	183	7.5	7.5	7.5	7.5	7.5	7.5	7.5	7.5	7.5	7.5	75	7.5	19	10.75	7.5	7.5	17.5	7.5	120	7.5	7.5	10.75	7.5	7.5	94.25	7.5	7.5	10.75	7.5	75	7.5	7.5	52.5	7.5	7.5	165.25	10.75	75	7.5	10.75	192	7.5	7.5	15.25	167.5	7.5	7.5	7.5	13	7.5	13	148.25	7.5	94.25	7.5	172.75	19	10.75	7.5	7.5	7.5	75	7.5	7.5	7.5	7.5	7.5	7.5	120	7.5	10.75	192	19	10.75	7.5	89.75	7.5	7.5	7.5	120	7.5	7.5	30	7.5	8.5	7.5	7.5	7.5	10.75	7.5	7.5	23.5	7.5	7.5	7.5	10.75	10.75	7.5	7.5	7.5	30	7.5	7.5	52.5	7.5	7.5	7.5	7.5	7.5	75	7.5	7.5	7.5	7.5	30	7.5
	7.5	112.25	7.5	7.5	7.5	75	7.5	7.5	7.5	7.5	7.5	19	7.5	116.75	7.5	120	7.5	10.75	10.75	10.75	14.5	7.5	7.5	7.5	105.25	7.5	10.75	35	20	7.5	7.5	7.5	7.5	94.25	7.5	7.5	10.75	7.5	7.5	97.5	7.5	7.5	7.5	10.75	7.5	30	7.5	7.5	7.5	7.5	7.5	75	19	7.5	7.5	7.5	8.5	7.5	108.75	7.5	7.5	7.5	75	7.5	52.5	10.75	41.25	7.5	7.5	7.5	10.75	158.5	10.75	7.5	7.5	10.75	116.75	7.5	52.5	7.5	7.5	52.5	7.5	7.5	30	7.5	75	7.5	176.5	15.25	7.5	7.5	94.25	7.5	7.5	10.75	7.5	8.5	7.5	108.75	7.5	7.5	52.5	10.75	71.75	10.75	7.5	71.75	19	192	10.75	97.5	7.5	7.5	7.5	15.25	7.5	7.5	7.5	7.5	120	7.5	7.5	75	10.75	75	7.5	52.5
	97.5	7.5	30	7.5	7.5	7.5	163.25	30.75	19.75	7.5	7.5	10.75	7.5	10.75	30	7.5	10.75	136	71.75	7.5	26.5	240.5	7.5	75	7.5	108.75	7.5	244.5	10.75	190.25	34.75	30.25	7.5	7.5	120	7.5	7.5	52.5	7.5	7.5	7.5	139.25	7.5	14.5	7.5	7.5	15.25	146	7.5	30	7.5	7.5	10.75	10.75	23.5	256	7.5	7.5	7.5	7.5	7.5	10.75	7.5	30	7.5	7.5	7.5	13	148.25	7.5	7.5	7.5	7.5	10.75	139.25	7.5	165	14.5	10.75	7.5	7.5	7.5	7.5	97.5	7.5	7.5	15.25	7.5	10.75	94.25	7.5	7.5	10.75	7.5	127.75	19	7.5	167.5	7.5	7.5	30	7.5	7.5	7.5	7.5	7.5	75	7.5	7.5	7.5	7.5	7.5	7.5	15.25	7.5	134.75	7.5	10.75	15.25	7.5	7.5	7.5	7.5	7.5	19	10.75	7.5	7.5
	7.5	52.5	7.5	10.75	118.75	16.75	7.5	7.5	7.5	7.5	75	10.75	7.5	7.5	7.5	7.5	7.5	7.5	7.5	30	7.5	15.25	7.5	7.5	30	7.5	7.5	7.5	7.5	7.5	7.5	19	10.75	7.5	7.5	7.5	19.75	7.5	97.5	7.5	7.5	10.75	10.75	26	271.25	7.5	7.5	7.5	7.5	7.5	120	7.5	7.5	7.5	7.5	22	7.5	52.5	7.5	120	7.5	116.75	7.5	7.5	7.5	7.5	30	7.5	7.5	7.5	10.75	7.5	7.5	7.5	7.5	7.5	19.75	7.5	7.5	7.5	75	7.5	30	7.5	7.5	19	247.25	7.5	7.5	10.75	7.5	7.5	7.5	120	7.5	7.5	7.5	15.25	7.5	52.5	7.5	30.25	217.5	7.5	15.25	134.75	7.5	30	7.5	30	7.5	75	10.75	261.75	27.25	7.5	8.5	198.75	18	7.5	7.5	172.75	19	7.5	25.75	156.5	7.5	7.5
	30	7.5	7.5	139.25	7.5	10.75	7.5	7.5	7.5	30	7.5	158.5	7.5	7.5	19.25	10.75	7.5	7.5	75	7.5	30	7.5	75	7.5	7.5	7.5	15.25	7.5	7.5	157.25	7.5	7.5	7.5	7.5	7.5	7.5	175.25	7.5	7.5	7.5	7.5	52.5	7.5	10.75	23.5	7.5	52.5	7.5	75	7.5	7.5	10.75	7.5	7.5	10.75	14.5	10.75	7.5	7.5	7.5	7.5	7.5	7.5	149.5	10.75	15.25	7.5	30	7.5	10.75	27.25	7.5	10.75	7.5	52.5	7.5	7.5	7.5	15.25	7.5	7.5	157.25	7.5	10.75	7.5	10.75	15.25	7.5	10.75	116.75	7.5	116.75	10.75	7.5	7.5	75	7.5	10.75	7.5	7.5	10.75	19	7.5	7.5	7.5	7.5	7.5	7.5	139.25	10.75	7.5	7.5	7.5	7.5	20.75	13	7.5	7.5	130.25	19.75	7.5	7.5	10.75	7.5	208	7.5	94.25	10.75
	7.5	75	7.5	7.5	94.25	7.5	7.5	190.75	23.5	10.75	7.5	10.75	7.5	15.25	229	10.75	10.75	94.25	7.5	7.5	7.5	30	7.5	10.75	208.75	14.5	112.25	75	7.5	15.25	7.5	7.5	15.25	52.5	13	7.5	7.5	75	7.5	15.25	7.5	7.5	7.5	7.5	7.5	30	7.5	120	7.5	10.75	7.5	116.75	7.5	7.5	10.75	7.5	128	7.5	128	7.5	116.75	7.5	7.5	8.5	190	34.5	7.5	7.5	19.75	7.5	183.75	7.5	19	7.5	7.5	19.75	7.5	124.25	18	7.5	7.5	15.25	10.75	158.5	7.5	7.5	7.5	7.5	7.5	7.5	7.5	7.5	7.5	7.5	75	7.5	7.5	139.25	7.5	7.5	7.5	7.5	7.5	134.75	7.5	23.5	10.75	7.5	7.5	7.5	7.5	7.5	7.5	30	7.5	7.5	75	7.5	7.5	7.5	7.5	7.5	7.5	10.75	23.5	7.5	7.5	52.5
	7.5	7.5	120	7.5	10.75	7.5	7.5	7.5	7.5	7.5	7.5	7.5	7.5	7.5	7.5	7.5	7.5	7.5	244.25	37	27.25	10.75	7.5	7.5	14.5	10.75	7.5	10.75	7.5	7.5	7.5	10.75	176.5	7.5	131.5	13	7.5	7.5	7.5	22.5	7.5	190.75	23.5	7.5	7.5	7.5	75	7.5	7.5	23.5	7.5	7.5	7.5	7.5	14.5	109.75	7.5	7.5	10.75	7.5	10.75	7.5	41.25	7.5	7.5	15.25	7.5	7.5	194.5	10.75	7.5	7.5	25.75	7.5	7.5	130.25	7.5	7.5	7.5	139.25	7.5	7.5	7.5	7.5	10.75	7.5	7.5	97.5	7.5	22	222.5	15.25	7.5	7.5	7.5	7.5	109.75	7.5	7.5	75	7.5	30	7.5	15.25	7.5	210	7.5	97.5	7.5	10.75	23.5	33.75	209.5	7.5	52.5	7.5	7.5	7.5	7.5	15.25	22.5	222	7.5	7.5	7.5	7.5	7.5	7.5
	52.5	7.5	7.5	52.5	7.5	7.5	10.75	136	10.75	7.5	15.25	22.5	187.25	7.5	10.75	213.75	19.75	7.5	7.5	7.5	10.75	30	7.5	7.5	10.75	7.5	7.5	71.75	7.5	7.5	7.5	75	7.5	7.5	10.75	7.5	7.5	7.5	7.5	164.75	7.5	7.5	10.75	7.5	10.75	30	7.5	7.5	7.5	37.75	10.75	7.5	10.75	10.75	30	7.5	7.5	7.5	75	7.5	7.5	19.75	7.5	15.25	7.5	7.5	7.5	52.5	7.5	7.5	7.5	23.5	307.5	7.5	7.5	7.5	15.25	176.5	7.5	10.75	94.25	7.5	7.5	7.5	19	7.5	30	7.5	10.75	14.5	7.5	7.5	7.5	15.25	157.25	7.5	14.5	7.5	120	7.5	7.5	7.5	7.5	7.5	30	10.75	30	7.5	30	7.5	7.5	7.5	7.5	97.5	7.5	7.5	7.5	10.75	7.5	7.5	7.5	14.5	10.75	7.5	7.5	10.75	139.25	7.5
	10.75	94.25	7.5	7.5	7.5	19.75	7.5	7.5	7.5	7.5	10.75	113.5	7.5	7.5	7.5	10.75	7.5	7.5	75	7.5	7.5	7.5	120	7.5	30	7.5	97.5	7.5	175.25	19.75	7.5	7.5	7.5	10.75	177.75	7.5	52.5	10.75	7.5	151.5	10.75	7.5	97.5	7.5	116.75	7.5	7.5	97.5	7.5	247.25	7.5	7.5	151.5	71.75	7.5	14.5	10.75	7.5	10.75	7.5	7.5	183.25	7.5	183.25	15.25	7.5	7.5	7.5	52.5	7.5	7.5	10.75	15.25	7.5	134.75	7.5	7.5	10.75	7.5	7.5	10.75	7.5	221	31	25.75	7.5	8.5	7.5	7.5	7.5	30	7.5	7.5	10.75	7.5	7.5	10.75	7.5	7.5	7.5	15.25	34.5	15.25	7.5	7.5	7.5	7.5	75	7.5	139.25	10.75	7.5	52.5	7.5	7.5	15.25	192	14.5	75	7.5	157.25	7.5	7.5	7.5	97.5	7.5	7.5	7.5
	7.5	10.75	176.5	15.25	7.5	21.75	7.5	30	7.5	30	7.5	10.75	7.5	97.5	7.5	7.5	7.5	7.5	15.25	7.5	7.5	52.5	7.5	7.5	7.5	30	7.5	7.5	7.5	7.5	10.75	14.5	174	10.75	10.75	7.5	7.5	139.25	7.5	14.5	7.5	7.5	7.5	7.5	7.5	7.5	7.5	7.5	52.5	7.5	7.5	30	14.5	7.5	218.5	30.5	7.5	7.5	185.5	17.5	7.5	10.75	7.5	7.5	7.5	7.5	75	10.75	7.5	7.5	10.75	14.5	7.5	52.5	15.25	7.5	7.5	7.5	157.25	7.5	7.5	7.5	7.5	30	7.5	7.5	19.25	8.5	7.5	120	7.5	75	7.5	194.5	7.5	97.5	7.5	7.5	99.75	17.5	7.5	235	7.5	14.5	154.75	7.5	30	7.5	7.5	7.5	7.5	7.5	10.75	7.5	7.5	10.75	7.5	7.5	7.5	7.5	15.25	7.5	175.25	7.5	7.5	116.75	7.5	75
	7.5	7.5	7.5	7.5	7.5	27.75	185.75	7.5	120	7.5	7.5	15.25	7.5	7.5	7.5	7.5	10.75	7.5	112.25	7.5	7.5	7.5	7.5	10.75	139.25	7.5	7.5	15.25	7.5	75	7.5	7.5	7.5	7.5	7.5	7.5	30	7.5	7.5	10.75	7.5	75	7.5	10.75	7.5	94.25	10.75	7.5	7.5	7.5	175.25	7.5	10.75	7.5	7.5	10.75	7.5	10.75	7.5	7.5	30	7.5	7.5	208	7.5	7.75	21.5	238.875	15.25	7.5	7.5	26.5	7.5	7.5	7.5	10.75	23.5	145.75	15.25	7.5	7.5	15.25	7.5	7.5	225.25	32	21.5	7.5	30	7.5	7.5	7.5	7.5	19.75	7.5	7.5	7.5	75	7.5	14.5	10.75	7.5	7.5	10.75	7.5	10.75	7.5	7.5	10.75	7.5	7.5	19.75	194.5	7.5	7.5	273.5	26.25	19.75	7.5	7.5	7.5	7.5	19.75	7.5	7.5	10.75	52.5	7.5
	97.5	7.5	7.5	120	7.5	52.5	7.5	30	7.5	7.5	7.5	165.25	10.75	10.75	116.75	15.25	31	220.5	7.5	7.5	235	34.5	15.25	7.5	7.5	7.5	7.5	134.75	7.5	7.5	7.5	190.75	7.5	7.5	15.25	15.25	7.5	7.5	7.5	7.5	120	7.5	7.5	19	258	7.5	7.5	120	7.5	7.5	19.75	7.5	7.5	7.5	7.5	7.5	7.5	23.5	7.5	123.5	7.5	10.75	18.75	33.5	7.5	7.5	11.75	7.5	75	7.5	7.5	203.25	7.5	7.5	30	7.5	7.5	7.5	7.5	30	7.5	89.75	13	7.5	7.5	7.5	7.5	120	7.5	7.5	75	7.5	7.5	7.5	7.5	30	7.5	15.25	258.25	7.5	7.5	7.5	7.5	7.5	10.75	14.5	7.5	10.75	213.875	10.75	7.5	7.5	7.5	7.5	10.75	19	7.5	7.5	107.75	19.75	7.5	7.5	7.5	52.5	7.5	7.5	7.5	30
	7.5	7.5	7.5	7.5	7.5	7.5	7.5	7.5	7.5	139.25	7.5	7.5	7.5	7.5	7.5	7.5	7.5	7.5	94.25	7.5	7.5	15.25	7.5	7.5	7.5	10.75	116.75	7.5	30	7.5	7.5	23.5	10.75	7.5	273.25	34.75	10.75	10.75	139.25	7.5	7.5	112.25	7.5	7.5	27	15.25	7.5	7.5	130.25	7.5	7.5	10.75	94.25	10.75	176.5	7.5	7.5	228	7.5	15.25	7.5	7.5	10.75	10.75	7.5	11.75	10.75	7.5	7.5	30	7.5	7.5	7.5	94.25	10.75	7.5	7.5	15.25	7.5	7.5	97.5	7.5	172	17.5	7.5	75	7.5	7.5	10.75	7.5	7.5	218.5	30.5	14.5	10.75	7.5	30	7.5	31	25.75	7.5	10.75	19	21.25	35.75	345.5	23.5	7.5	14.75	7.5	15.25	134.75	7.5	7.5	10.75	7.5	7.5	10.75	7.5	7.5	10.75	94.25	7.5	7.5	7.5	192	19	7.5
	7.5	15.25	22.5	7.5	139.25	7.5	10.75	75	7.5	10.75	7.5	108.75	7.5	172	10.75	7.5	10.75	7.5	10.75	30	7.5	7.5	7.5	15.25	75	7.5	7.5	7.5	7.5	75	7.5	7.5	7.5	7.5	7.5	10.75	7.5	71.75	7.5	30	7.5	15.25	7.5	7.5	7.5	7.5	52.5	7.5	19.75	7.5	7.5	7.5	7.5	7.5	15.25	75	7.5	15.25	7.5	7.5	7.5	30	7.5	7.5	210.125	28.25	10.75	7.5	7.5	7.5	169.25	18	15.25	7.5	7.5	7.5	10.75	176.5	7.5	7.5	152.75	7.5	7.5	7.5	30	7.5	7.5	7.5	116.75	7.5	7.5	7.5	10.75	7.5	18	15.25	7.5	30	7.5	19	10.75	7.5	7.5	7.5	7.5	7.5	10.75	7.5	10.75	7.5	7.5	7.5	7.5	7.5	94.25	7.5	7.5	14.5	154.75	7.5	7.5	7.5	15.25	157.25	7.5	10.75	10.75	7.5
	7.5	10.75	206.5	7.5	10.75	7.5	158.5	7.5	7.5	7.5	7.5	7.5	7.5	19.75	7.5	7.5	224.5	7.5	7.5	7.5	157.25	7.5	7.5	134.75	7.5	7.5	116.75	10.75	7.5	7.5	120	7.5	7.5	75	7.5	7.5	7.5	10.75	7.5	7.5	7.5	30	7.5	176.5	10.75	7.5	7.5	7.5	7.5	7.5	15.25	7.5	15.25	7.5	7.5	7.5	7.5	7.5	30	7.5	120	7.5	97.5	7.5	7.5	7.5	7.5	7.5	15.25	7.5	7.5	30	7.5	7.5	52.5	7.5	7.5	7.5	7.5	7.5	19.75	7.5	7.5	116.75	10.75	7.5	120	7.5	7.5	7.5	200.5	7.5	7.5	15.25	243.75	15.25	7.5	7.5	7.5	7.5	7.5	7.5	27	15.25	7.5	7.5	116.75	7.5	95.875	7.5	7.5	7.5	175.25	19.75	7.5	7.5	120	7.5	7.5	75	7.5	7.5	7.5	7.5	7.5	7.5	10.75	7.5
	10.75	71.75	7.5	7.5	7.5	7.5	10.75	10.75	139.25	7.5	116.75	10.75	30	7.5	7.5	15.25	27	7.5	7.5	94.25	15.25	7.5	7.5	97.5	7.5	7.5	7.5	7.5	19.75	7.5	7.5	7.5	75	7.5	7.5	7.5	120	7.5	7.5	134.75	15.25	7.5	52.5	15.25	7.5	7.5	7.5	108.75	7.5	7.5	18	146.75	134.75	7.5	7.5	10.75	158.5	7.5	7.5	94.25	7.5	7.5	7.5	30	7.5	7.5	10.75	7.5	18	169.25	7.5	7.5	103.25	13	7.5	75	86.25	7.5	52.5	7.5	7.5	52.5	7.5	7.5	7.5	7.5	7.5	7.5	139.25	7.5	26	10.75	7.5	7.5	7.5	7.5	7.5	116.75	10.75	7.5	10.75	7.5	213.25	10.75	7.5	7.5	10.75	7.5	7.5	7.5	97.5	7.5	7.5	7.5	30	7.5	7.5	30	7.5	7.5	7.5	10.75	139.25	7.5	52.5	7.5	94.25	7.5
	7.5	7.5	7.5	75	7.5	7.5	7.5	7.5	7.5	7.5	7.5	7.5	7.5	7.5	7.5	7.5	7.5	94.25	10.75	10.75	7.5	7.5	94.25	7.5	7.5	75	7.5	7.5	175.25	7.5	7.5	7.5	10.75	25.5	195.75	10.75	7.5	7.5	10.75	116.75	7.5	7.5	7.5	7.5	7.5	75	7.5	7.5	7.5	23.5	145.75	7.5	7.5	52.5	7.5	7.5	10.75	7.5	7.5	10.75	7.5	10.75	94.25	7.5	10.75	19	229.25	15.25	7.5	7.5	18	197.5	13	7.5	7.5	86.25	7.5	7.5	7.5	120	7.5	7.5	7.5	15.25	7.5	10.75	7.5	7.5	10.75	10.75	14.5	7.5	7.5	75	7.5	7.5	52.5	7.5	7.5	19.75	194.5	7.5	7.5	10.75	7.5	7.5	10.75	139.25	7.5	7.5	75	7.5	7.5	7.5	10.75	94.25	7.5	7.5	75	7.5	75	7.5	7.5	7.5	7.5	116.75	10.75	7.5
	7.5	19.75	7.5	7.5	19.75	277.75	26.5	7.5	7.5	75	7.5	7.5	15.25	228	23.5	10.75	7.5	7.5	7.5	7.5	7.5	7.5	10.75	7.5	97.5	7.5	52.5	7.5	7.5	7.5	15.25	7.5	7.5	8.5	7.5	7.5	75	7.5	7.5	7.5	7.5	175.25	7.5	7.5	19.75	7.5	7.5	128	10.75	10.75	7.5	7.5	116.75	7.5	7.5	139.25	7.5	7.5	7.5	15.25	146	7.5	7.5	7.5	7.5	7.5	7.5	75	7.5	7.5	15.25	7.5	7.5	7.5	7.5	7.5	7.5	97.5	7.5	7.5	14.5	154.75	7.5	89.75	7.5	14.5	10.75	30	7.5	7.5	7.5	120	7.5	10.75	7.5	30	7.5	157.25	7.5	7.5	7.5	7.5	214.25	27.25	10.75	7.5	7.5	7.5	7.5	52.5	7.5	7.5	10.75	7.5	15.25	22.5	187.25	7.5	7.5	120	7.5	7.5	22	185.25	7.5	7.5	10.75	7.5
	7.5	212.5	15.25	7.5	7.5	10.75	14.5	75	7.5	7.5	120	7.5	7.5	7.5	7.5	7.5	7.5	7.5	7.5	7.5	17.5	7.5	7.5	7.5	10.75	52.5	7.5	30	7.5	19.75	212.5	7.5	63.75	7.5	157.25	7.5	7.5	7.5	120	7.5	7.5	19.75	7.5	7.5	164	7.5	30	7.5	7.5	7.5	7.5	7.5	10.75	7.5	7.5	10.75	7.5	75	7.5	7.5	7.5	7.5	23.5	10.75	10.75	176.5	7.5	7.5	7.5	10.75	7.5	7.5	10.75	27.25	183.75	7.5	52.5	7.5	52.5	7.5	10.75	7.5	7.5	7.5	15.25	38	267.5	7.5	52.5	7.5	30	7.5	7.5	139.25	7.5	7.5	7.5	15.25	7.5	7.5	30	7.5	10.75	7.5	10.75	7.5	94.25	10.75	7.5	7.5	157.25	15.25	116.75	7.5	7.5	7.5	7.5	7.5	52.5	7.5	7.5	10.75	14.5	7.5	7.5	190.75	23.5	7.5
	52.5	7.5	7.5	7.5	52.5	7.5	10.75	7.5	94.25	7.5	7.5	7.5	139.25	7.5	7.5	139.25	10.75	10.75	10.75	16.75	98.75	7.5	97.5	7.5	158.5	10.75	75	7.5	52.5	7.5	7.5	7.5	7.5	7.5	15.25	7.5	75	7.5	7.5	7.5	10.75	7.5	7.5	52.5	7.5	71.75	10.75	7.5	7.5	7.5	120	7.5	7.5	157.25	7.5	7.5	52.5	7.5	120	7.5	116.5	7.5	190.75	7.5	7.5	15.25	7.5	8.5	7.5	128	7.5	7.5	7.5	10.75	7.5	7.5	10.75	158.5	7.5	7.5	7.5	7.5	10.75	71.75	7.5	10.75	7.5	7.5	7.5	120	7.5	7.5	94.25	7.5	7.5	120	7.5	7.5	7.5	75	7.5	7.5	7.5	7.5	139.25	7.5	7.5	7.5	7.5	7.5	7.5	7.5	7.5	7.5	7.5	7.5	7.5	7.5	7.5	30	7.5	127.75	7.5	97.5	7.5	7.5	7.5	52.5
	7.5	7.5	52.5	7.5	10.75	7.5	7.5	7.5	10.75	7.5	52.5	7.5	10.75	7.5	30	7.5	7.5	176.5	7.5	141.25	7.5	52.5	7.5	7.5	7.5	7.5	7.5	7.5	7.5	7.5	7.5	75	7.5	7.5	116.75	7.5	7.5	7.5	7.5	7.5	137.625	7.5	52.5	7.5	108.75	7.5	7.5	89.75	15.25	52.5	7.5	112.25	7.5	15.25	7.5	7.5	7.5	7.5	7.5	7.5	19	10.75	7.5	7.5	10.75	7.5	7.5	130.25	7.5	7.5	94.25	10.75	7.5	7.5	7.5	30	7.5	10.75	7.5	120	7.5	75	7.5	7.5	7.5	15.25	173.25	10.75	52.5	7.5	30	7.5	10.75	7.5	7.5	7.5	7.5	190.75	7.5	7.5	19.75	229.25	10.75	7.5	7.5	7.5	75	10.75	10.75	176.5	7.5	7.5	7.5	139.25	10.75	15.25	134.75	10.75	139.25	7.5	10.75	19	7.5	7.5	75	7.5	7.5	7.5
	7.5	13	7.5	7.5	139.25	7.5	7.5	7.5	7.5	75	7.5	7.5	7.5	7.5	7.5	7.5	7.5	15.25	7.5	7.5	7.5	7.5	10.75	134.125	14.5	10.75	7.5	52.5	7.5	10.75	192	7.5	30	7.5	10.75	7.5	7.5	15.25	176.5	7.5	10.75	7.5	7.5	7.5	7.5	7.5	15.25	7.5	7.5	7.5	52.5	15.25	7.5	7.5	7.5	187.25	22.5	15.25	7.5	7.5	7.5	7.5	7.5	7.5	19	94.25	10.75	7.5	30	7.5	7.5	7.5	15.25	203.5	17.5	7.5	7.5	94.25	10.75	7.5	75	7.5	7.5	75	7.5	7.5	10.75	7.5	7.5	7.5	7.5	75	7.5	7.5	75	7.5	7.5	23.5	7.5	30	7.5	14.5	7.5	157.25	15.25	7.5	7.5	139.25	7.5	15.25	7.5	10.75	113.5	7.5	30	7.5	7.5	7.5	7.5	7.5	7.5	7.5	7.5	7.5	7.5	7.5	139.25	7.5
	10.75	216.625	19.75	7.5	7.5	7.5	139.25	10.75	116.75	7.5	7.5	19.75	212.5	15.25	10.75	259.75	7.5	7.5	7.5	145.75	23.5	7.5	7.5	7.5	114.875	7.5	7.5	7.5	97.5	7.5	19	10.75	7.5	15.25	18	7.5	7.5	52.5	10.75	7.5	118.375	7.5	7.5	120	7.5	182.75	27	7.5	7.5	7.5	7.5	7.5	30	10.75	7.5	7.5	7.5	30	7.5	10.75	139.25	7.5	75	7.5	192	10.75	7.5	7.5	7.5	120	7.5	7.5	52.5	7.5	7.5	30	7.5	7.5	7.5	7.5	7.5	7.5	7.5	12.5	147.125	7.5	7.5	7.5	7.5	19.75	7.5	7.5	120	7.5	7.5	107.125	7.5	10.75	7.5	7.5	7.5	10.75	7.5	7.5	7.5	7.5	109.75	7.5	30	7.5	7.5	30	10.75	7.5	7.5	30	7.5	15.25	71.75	10.75	7.5	10.75	158.5	10.75	7.5	7.5	10.75	7.5
	7.5	8.5	7.5	71.75	10.75	7.5	7.5	7.5	10.75	7.5	7.5	7.5	7.5	7.5	7.5	36	26.25	19.75	7.5	7.5	10.75	7.5	10.75	7.5	7.5	7.5	75	7.5	7.5	7.5	7.5	7.5	7.5	7.5	225.75	15.25	7.5	7.5	7.5	7.5	7.5	7.5	10.75	7.5	71.75	7.5	7.5	14.5	10.75	10.75	7.5	7.5	7.5	139.25	7.5	7.5	97.5	7.5	175.25	7.5	7.5	7.5	7.5	30	7.5	7.5	7.5	19.75	7.5	7.5	52.5	7.5	7.5	7.5	41.25	7.5	228	19.75	7.5	15.25	22.5	209.875	17	10.75	7.5	7.5	158.5	10.75	7.5	175.25	7.5	7.5	7.5	10.75	94.25	10.75	107.125	7.5	7.5	10.75	30	7.5	139.25	7.5	7.5	10.75	14.5	7.5	7.5	7.5	120	7.5	7.5	7.5	139.25	7.5	7.5	147	14.5	7.5	190.75	7.5	7.5	7.5	97.5	7.5	7.5	97.5
	7.5	113.875	7.5	10.75	7.5	7.5	7.5	10.75	19	228	19.75	7.5	7.5	30	7.5	7.5	7.5	7.5	10.75	116.75	7.5	7.5	139.25	7.5	7.5	97.5	7.5	7.5	10.75	139.25	7.5	7.5	97.5	7.5	10.75	7.5	7.5	120	7.5	10.75	136	7.5	71.75	7.5	10.75	7.5	7.5	132.25	7.5	115.125	10.75	73.375	7.5	7.5	7.5	10.75	7.5	7.5	19.75	7.5	7.5	120	7.5	7.5	30	7.5	7.5	175.25	7.5	75	7.5	7.5	229.25	33	7.5	7.5	19	7.5	30	7.5	7.5	7.5	7.5	7.5	30	7.5	10.75	112.25	7.5	7.5	10.75	139.25	7.5	7.5	7.5	7.5	7.5	7.5	172.75	19	7.5	7.5	10.75	7.5	7.5	30	7.5	26.5	256	7.5	7.5	7.5	175.25	7.5	10.75	7.5	97.5	7.5	10.75	10.75	23.5	7.5	10.75	7.5	7.5	52.5	7.5	7.5
	30	7.5	7.5	139.25	7.5	97.5	7.5	89.75	7.5	7.5	7.5	10.75	139.25	7.5	10.75	136	10.75	7.5	7.5	7.5	7.5	7.5	7.5	7.5	52.5	7.5	7.5	120	7.5	7.5	7.5	97.5	7.5	7.5	71.75	10.75	52.5	7.5	30	7.5	10.75	7.5	7.5	10.75	7.5	52.5	7.5	15.25	7.5	7.5	7.5	7.5	120	7.5	7.5	19	7.5	7.5	7.5	30	7.5	7.5	7.5	75	7.5	52.5	7.5	7.5	7.5	7.5	10.75	94.25	7.5	22.5	7.5	52.5	10.75	75	7.5	7.5	7.5	75	7.5	7.5	10.75	7.5	75	15.25	7.5	7.5	7.5	7.5	75	7.5	7.5	7.5	134.75	7.5	7.5	94.25	7.5	7.5	52.5	10.75	15.25	7.5	10.75	14.5	19	7.5	7.5	7.5	19.75	7.5	7.5	7.5	15.25	7.5	7.5	7.5	7.5	7.5	71.75	7.5	157.25	7.5	7.5	94.25
	7.5	10.75	71.75	7.5	30	7.5	7.5	15.25	7.5	52.5	7.5	7.5	7.5	52.5	7.5	7.5	7.5	52.5	7.5	116.75	10.75	75	7.5	7.5	10.75	116.75	7.5	7.5	7.5	75	7.5	7.5	7.5	97.5	7.5	7.5	7.5	30	7.5	116.75	10.75	7.5	7.5	19	150.25	7.5	7.5	134.75	7.5	7.5	97.5	7.5	7.5	30	7.5	148.625	10.75	95.875	7.5	7.5	97.5	7.5	75	7.5	30	7.5	97.5	7.5	75	7.5	7.5	7.5	7.5	15.25	7.5	7.5	7.5	7.5	7.5	15.25	134.75	7.5	30	7.5	116.75	7.5	7.5	7.5	7.5	75	52.5	7.5	7.5	7.5	75	7.5	15.25	7.5	7.5	10.75	52.5	7.5	7.5	184	22.5	7.5	7.5	7.5	10.75	7.5	97.5	7.5	7.5	52.5	7.5	7.5	154	10.75	7.5	7.5	10.75	116.75	7.5	7.5	15.25	7.5	7.5	10.75
