Rainfall simulation completed in 170 time steps
Runtime = 0.00768958 seconds

The following grid shows the number of raindrops absorbed at each point:
	17.5	2.5	2.5	3
	2.5	3.75	5.75	42.5
	2.5	2.5	2.5	25
	37.25	5.25	2.5	2.5
