Rainfall simulation completed in 261 time steps
Runtime = 0.0341798 seconds

The following grid shows the number of raindrops absorbed at each point:
	40	10	20	10	50	10	10	13.5	76	10.5	10	10	10	10	10.5	10	49.5	10.5	10	10	50	10	10	10.5	59	10	30	10	30	10	10	20
	10	10	10	10	10	10	35	10	10	20	10	92.5	10.5	10	49.5	10	13.5	10.5	10	20	10	35	10	10	10.5	10	10	40	10	10	94	10
	10	10.5	82.5	17	10	10	10	35	10	10	10	17	10	10	10	116.5	19	10	20	10	10.25	10	10	10.5	13.5	10	76.5	13.5	10	10	22.5	10
	50	10	10	10	10	30	10	10	10	60	10	10	10	50	10	20	10.5	39.5	10	79.5	15.25	10	83	10	75.5	10.5	10	10	10	10	13.5	10
	10	10	60	10	10.5	10	17	73	10	10	10	40	10	10	20	10	10	10.5	10	10	10	10	17	10	10	10	20	10	10.5	13.5	10	20
	40	10	10	10	49.5	10	10	10	10	10	10	10.5	10.5	10	10	10	13.5	10	10	10	10	10	10	25	10	25	10	60	10	19	87	10
	10	10	40	10	10.5	59.5	10	69.5	20	10.5	10	102	13.5	10	54.75	10	56.5	10.5	20	30	33.5	115.5	10	10	20	10	71.5	10	20	10	10	20
	10	49.5	10	10	10	10	50	10	10	10	10	13.5	10	67.5	10.5	10	10	10	10	10.5	10	10	10	10.5	10	10	21.5	12	10	12	72.5	10.5
	10	10.5	10	10.5	69.5	10	10	20	10	40	10	10	10.25	12	10	10.5	10	10	20	10	10	10.5	92	17	66	10	10	10	10	10	10	10
	10	10.5	49.5	10.5	10	30	10	10	76	10	10	25	10	10.5	92	17	10.5	69.5	10	10	10	10	10	10	13.5	10	20	10	76.5	10	10	20
	10	69.5	10	10	10	10	10	10.5	13.5	10	17	10	10	10	10	10	10	10	10	17	73	13.5	66.5	10	10	20	10	10	13.5	10	69.5	10
	10	10	10	10	13.5	22.5	10	10	30	10	106	10	40	10	20	10	10	30	10	10	10	10	10	10	10	10	60	10	10	10	10.5	10
	10.5	10	13.5	16	10	94	10	10	10	10	17	10	10	10	13.5	56.5	10	10	40	10	10	30	10	10.5	92	10	10	10	10	76.5	13.5	10
	20	59	10	17	63.5	10	10	93.5	22.5	10	10	10	13.5	10	10	10	50	10	10	50	50	10	10	10.5	17	10	10	50	10	10	10	10
	10.5	10	50	10	10	10	10.5	10	13.5	10.5	10	50	66.5	10	10	81.5	10	39.5	10.5	10	10	25	10	30	10	10	20	10	10	10.5	10	50
	10	10	10.5	10	67.5	10	69.5	10	10	10	10	10	10	40	10	21	10	10	10	40	10	10	10	10	69.5	10.5	10	60	10	13.5	46	10
	10	10.5	88.5	10	19	10	10	10	60	10	49.5	10.5	10	10	10.5	17	13.5	76	10	10	10	15.5	79.5	10	10	10.5	10	10	20	10	50	10
	10	10	10.5	10	13.5	10	50	10	10	10	13.5	10	10	10	10	10	10.5	10	10	10	40	10	10	10	52.5	17	10	50	10	10	10	30
	30	10	10.5	10	10	10	10	10	20	10	56.5	10	86	13.5	10	30	10	10	76.5	10	10	10	79.5	20	10.5	10	10	10	10	83	10	10
	10	82.5	17	10	10	30	10	60	10	10	10.5	10	10.5	10	10	10	10	10	13.5	10	10	30	10	10	10	10	60	10	10	17	10	10
	46.5	10	40	10	50	10	10	10	10	19	120	17	10	20	10.5	10	10.5	59.5	10	10	10.5	10	10	39.5	10.5	10	10	40	10	10	10	50
	13.5	10	10	20	10	20	13.5	10	10	13.5	10	10	30	10	92.5	17	10	10	10.5	17	130.5	24.5	17	10	10	10	40	10	10	30	10	10
	10	10	30	10	20	10	95.5	10.5	10	10	40	10	10	10	10	10	10	10	10	10	10	10	10	10	13.5	10	10	20	10	10	60	10
	10	10.5	10	17	10	10	10.5	20	10	20	10	10	10	40	10	10.5	102	17	10	10	30	10	10	26	19	10	10	10	10.5	10	10	30
	10	17	10	99	10	10	10	10	10.5	10	10	16.5	79.5	10	10	10	10.5	10	10	40	10	10	13.5	127.5	10	10	17	21.25	124	17	10	10
	10	92	10	13.5	10	30	10.5	20	108.5	10.5	10	10	10	53	12	10	10	10	83	10	10	30	10	10.5	10	10	10.5	10	10	10	20	10
	10	10.5	10	10	10	10	20	10	10	10	69.5	10.5	10	10	10	25	10	10	17	10	10	10	10	50	10	10	17	62.75	10	20	10	50
	10	10	40	10	89.5	20	10	10	13.5	10	10	20	10	10	49.5	10.5	49.5	10.5	10	10	17	83	10	10	10	10	10	10	82.5	10	10	10
	13.5	10	10	20	10	10.5	10	10	22.5	10	10	10	20	10.5	10	10	10	10	10.5	10	10	10	10	10	13.5	76.5	10	10	17	10	50	10
	76	10	59.5	10.5	49.5	10	10	10	74	10	10.5	10	89.5	10	50	10	50	10	17	10	10	10	17	10	10	10	30	10	10.5	10	10	20
	10.5	20	10	10	10.5	10	60	10	10	40	17	10	10	20	10	20	10	10	98.5	13.5	10.5	10	86	10	64.75	10	10	10	13.5	22.5	103.5	10
	10	10	40	10	10	20	10	30	10	10	72.5	10	30	10	20	10	40	10	10	30	10	10	12	10	10.25	10	40	10	10	10	10.5	10
